EESchema Schematic File Version 4
EELAYER 30 0
EELAYER END
$Descr A3 16535 11693
encoding utf-8
Sheet 2 14
Title "LibreRouter - Megaboard - Core board interface"
Date "2020-07-13"
Rev "1.4"
Comp "LibreRouter"
Comment1 ""
Comment2 ""
Comment3 ""
Comment4 ""
$EndDescr
Text HLabel 2200 1350 0    50   Input ~ 0
5V_1
Text HLabel 2200 1450 0    50   Input ~ 0
3V3
Wire Wire Line
	11550 4500 12050 4500
Wire Wire Line
	12050 4600 11550 4600
Wire Wire Line
	11550 4700 12050 4700
Wire Wire Line
	12050 4800 11550 4800
Wire Wire Line
	11550 4900 12050 4900
Wire Wire Line
	12050 5000 11550 5000
Wire Wire Line
	11550 5100 12050 5100
Wire Wire Line
	12050 5200 11550 5200
Wire Wire Line
	11550 3600 12050 3600
Wire Wire Line
	12050 3700 11550 3700
Wire Wire Line
	11550 3800 12050 3800
Wire Wire Line
	12050 3900 11550 3900
Wire Wire Line
	11550 4000 12050 4000
Wire Wire Line
	12050 4100 11550 4100
Wire Wire Line
	11550 4200 12050 4200
Wire Wire Line
	12050 4300 11550 4300
Wire Wire Line
	10450 2950 10450 3100
Wire Wire Line
	10450 2950 12050 2950
Wire Wire Line
	10350 3100 10350 2850
Wire Wire Line
	10350 2850 12050 2850
Wire Wire Line
	10250 3100 10250 2750
Wire Wire Line
	10250 2750 12050 2750
Wire Wire Line
	10150 2650 10150 3100
Wire Wire Line
	10150 2650 12050 2650
Wire Wire Line
	10050 3100 10050 2550
Wire Wire Line
	10050 2550 12050 2550
Wire Wire Line
	9950 2450 9950 3100
Wire Wire Line
	9950 2450 12050 2450
Wire Wire Line
	9850 3100 9850 2350
Wire Wire Line
	9850 2350 12050 2350
Wire Wire Line
	9750 2250 9750 3100
Wire Wire Line
	9750 2250 12050 2250
Text HLabel 12050 1900 2    50   Input ~ 0
S17_P3_TRX0+
Text HLabel 12050 1800 2    50   Input ~ 0
S17_P3_TRX0-
Text HLabel 12050 1700 2    50   Input ~ 0
S17_P3_TRX1+
Text HLabel 12050 1600 2    50   Input ~ 0
S17_P3_TRX1-
Text HLabel 12050 1500 2    50   Input ~ 0
S17_P3_TRX2+
Text HLabel 12050 1400 2    50   Input ~ 0
S17_P3_TRX2-
Text HLabel 12050 1300 2    50   Input ~ 0
S17_P3_TRX3+
Text HLabel 12050 1200 2    50   Input ~ 0
S17_P3_TRX3-
Wire Wire Line
	9550 3100 9550 1900
Wire Wire Line
	9550 1900 12050 1900
Wire Wire Line
	9450 1800 9450 3100
Wire Wire Line
	9450 1800 12050 1800
Wire Wire Line
	9350 3100 9350 1700
Wire Wire Line
	9350 1700 12050 1700
Wire Wire Line
	9250 1600 9250 3100
Wire Wire Line
	9250 1600 12050 1600
Wire Wire Line
	9150 3100 9150 1500
Wire Wire Line
	9150 1500 12050 1500
Wire Wire Line
	9050 1400 9050 3100
Wire Wire Line
	9050 1400 12050 1400
Wire Wire Line
	8950 3100 8950 1300
Wire Wire Line
	8950 1300 12050 1300
Wire Wire Line
	8850 1200 8850 3100
Wire Wire Line
	8850 1200 12050 1200
Text HLabel 5000 1200 0    50   Input ~ 0
S17_P4_TRX0+
Text HLabel 5000 1300 0    50   Input ~ 0
S17_P4_TRX0-
Text HLabel 5000 1400 0    50   Input ~ 0
S17_P4_TRX1+
Text HLabel 5000 1500 0    50   Input ~ 0
S17_P4_TRX1-
Text HLabel 5000 1600 0    50   Input ~ 0
S17_P4_TRX2+
Text HLabel 5000 1700 0    50   Input ~ 0
S17_P4_TRX2-
Text HLabel 5000 1800 0    50   Input ~ 0
S17_P4_TRX3+
Text HLabel 5000 1900 0    50   Input ~ 0
S17_P4_TRX3-
Wire Wire Line
	5000 3600 5500 3600
Wire Wire Line
	5500 3700 5000 3700
Wire Wire Line
	5000 3800 5500 3800
Wire Wire Line
	5500 3900 5000 3900
Wire Wire Line
	5000 4000 5500 4000
Wire Wire Line
	5500 4100 5000 4100
Wire Wire Line
	5000 4200 5500 4200
Wire Wire Line
	5500 4300 5000 4300
Wire Wire Line
	5000 1200 8650 1200
Wire Wire Line
	8650 1200 8650 3100
Wire Wire Line
	8550 3100 8550 1300
Wire Wire Line
	8550 1300 5000 1300
Wire Wire Line
	5000 1400 8450 1400
Wire Wire Line
	8450 1400 8450 3100
Wire Wire Line
	8350 3100 8350 1500
Wire Wire Line
	8350 1500 5000 1500
Wire Wire Line
	5000 1600 8250 1600
Wire Wire Line
	8250 1600 8250 3100
Wire Wire Line
	8150 3100 8150 1700
Wire Wire Line
	8150 1700 5000 1700
Wire Wire Line
	5000 1800 8050 1800
Wire Wire Line
	8050 1800 8050 3100
Wire Wire Line
	7950 3100 7950 1900
Wire Wire Line
	7950 1900 5000 1900
Text HLabel 5000 3600 0    50   Input ~ 0
S17_LEDN_3
Text HLabel 5000 3700 0    50   Input ~ 0
S17_LEDN1000_3
Text HLabel 5000 3800 0    50   Input ~ 0
S17_LEDN_4
Text HLabel 5000 3900 0    50   Input ~ 0
S17_LEDN1000_4
Wire Wire Line
	5000 2850 6750 2850
Wire Wire Line
	6750 2850 6750 3100
Wire Wire Line
	5000 2750 6850 2750
Wire Wire Line
	6850 2750 6850 3100
Wire Wire Line
	5000 2650 6950 2650
Wire Wire Line
	6950 2650 6950 3100
Wire Wire Line
	5000 2550 7050 2550
Wire Wire Line
	7050 2550 7050 3100
Wire Wire Line
	5000 2450 7150 2450
Wire Wire Line
	7150 2450 7150 3100
Wire Wire Line
	5000 2350 7250 2350
Wire Wire Line
	7250 2350 7250 3100
Wire Wire Line
	5000 4500 5500 4500
Wire Wire Line
	5500 4600 5000 4600
Text HLabel 5000 4500 0    50   Input ~ 0
PCIE1_TX_P_CONN
Text HLabel 5000 4600 0    50   Input ~ 0
PCIE1_TX_N_CONN
Wire Wire Line
	5000 4800 5500 4800
Wire Wire Line
	5500 4900 5000 4900
Text HLabel 5000 4800 0    50   Input ~ 0
PCIE1_RX_P_CONN
Text HLabel 5000 4900 0    50   Input ~ 0
PCIE1_RX_N_CONN
Wire Wire Line
	5000 5100 5500 5100
Wire Wire Line
	5500 5200 5000 5200
Text HLabel 5000 5100 0    50   Input ~ 0
PCIE1_CLK_P_CONN
Text HLabel 5000 5200 0    50   Input ~ 0
PCIE1_CLK_N_CONN
Wire Wire Line
	5000 5500 5500 5500
Wire Wire Line
	5500 5600 5000 5600
Text HLabel 5000 5600 0    50   Input ~ 0
PCIE0_CLK_P_CONN
Text HLabel 5000 5500 0    50   Input ~ 0
PCIE0_CLK_N_CONN
Wire Wire Line
	5000 5800 5500 5800
Wire Wire Line
	5500 5900 5000 5900
Text HLabel 5000 5900 0    50   Input ~ 0
PCIE0_RX_P_CONN
Text HLabel 5000 5800 0    50   Input ~ 0
PCIE0_RX_N_CONN
Wire Wire Line
	5000 6100 5500 6100
Wire Wire Line
	5500 6200 5000 6200
Text HLabel 5000 6200 0    50   Input ~ 0
PCIE0_TX_P_CONN
Text HLabel 5000 6100 0    50   Input ~ 0
PCIE0_TX_N_CONN
Wire Wire Line
	5000 5300 5500 5300
Wire Wire Line
	5500 5400 5000 5400
Text HLabel 5000 5300 0    50   Input ~ 0
PCIE1_RST_L
Text HLabel 5000 5400 0    50   Input ~ 0
PCIE0_RST_L
Text HLabel 12050 7650 2    50   Input ~ 0
GPIO23
Text HLabel 12050 7150 2    50   Input ~ 0
USB1_DP
Text HLabel 12050 7050 2    50   Input ~ 0
USB1_DM
Text HLabel 12050 7450 2    50   Input ~ 0
USB0_DP
Text HLabel 12050 7350 2    50   Input ~ 0
USB0_DM
Wire Wire Line
	10350 6800 10350 7050
Wire Wire Line
	10350 7050 12050 7050
Wire Wire Line
	12050 7150 10250 7150
Wire Wire Line
	10250 7150 10250 6800
Wire Wire Line
	10050 6800 10050 7350
Wire Wire Line
	10050 7350 12050 7350
Wire Wire Line
	12050 7450 9950 7450
Wire Wire Line
	9950 7450 9950 6800
Text HLabel 12050 7750 2    50   Input ~ 0
GPIO22
Text HLabel 12050 7850 2    50   Input ~ 0
GPIO21
Text HLabel 12050 7950 2    50   Input ~ 0
GPIO20
Text HLabel 12050 8050 2    50   Input ~ 0
GPIO19
Text HLabel 12050 8150 2    50   Input ~ 0
GPIO18
Text HLabel 12050 8250 2    50   Input ~ 0
GPIO17
Text HLabel 12050 8350 2    50   Input ~ 0
GPIO16
Text HLabel 12050 8450 2    50   Input ~ 0
GPIO15
Text HLabel 12050 8550 2    50   Input ~ 0
GPIO14
Text HLabel 12050 8650 2    50   Input ~ 0
GPIO13
Text HLabel 12050 8750 2    50   Input ~ 0
GPIO12
Wire Wire Line
	9750 6800 9750 7650
Wire Wire Line
	9750 7650 12050 7650
Wire Wire Line
	12050 7750 9650 7750
Wire Wire Line
	9650 7750 9650 6800
Wire Wire Line
	9550 6800 9550 7850
Wire Wire Line
	9550 7850 12050 7850
Wire Wire Line
	12050 7950 9450 7950
Wire Wire Line
	9450 7950 9450 6800
Wire Wire Line
	9350 6800 9350 8050
Wire Wire Line
	9350 8050 12050 8050
Wire Wire Line
	12050 8150 9250 8150
Wire Wire Line
	9250 8150 9250 6800
Wire Wire Line
	9150 6800 9150 8250
Wire Wire Line
	9150 8250 12050 8250
Wire Wire Line
	12050 8350 9050 8350
Wire Wire Line
	9050 8350 9050 6800
Wire Wire Line
	8950 6800 8950 8450
Wire Wire Line
	8950 8450 12050 8450
Wire Wire Line
	12050 8550 8850 8550
Wire Wire Line
	8850 8550 8850 6800
Wire Wire Line
	8750 6800 8750 8650
Wire Wire Line
	8750 8650 12050 8650
Wire Wire Line
	12050 8750 8650 8750
Wire Wire Line
	8650 8750 8650 6800
Text HLabel 5000 7050 0    50   Input ~ 0
COM_A_2G
Text HLabel 5000 7150 0    50   Input ~ 0
COM_B_2G
Text HLabel 5000 7350 0    50   Input ~ 0
GPIO0-EJTAG_TCK
Text HLabel 5000 8050 0    50   Input ~ 0
UART_SIN
Text HLabel 5000 8150 0    50   Input ~ 0
UART_SOUT
Wire Wire Line
	5000 7050 6850 7050
Wire Wire Line
	6850 7050 6850 6800
Wire Wire Line
	6950 6800 6950 7150
Wire Wire Line
	6950 7150 5000 7150
Text HLabel 5000 7450 0    50   Input ~ 0
GPIO1-EJTAG_TDI
Text HLabel 5000 7550 0    50   Input ~ 0
GPIO2-EJTAG_TDO
Text HLabel 5000 7650 0    50   Input ~ 0
GPIO3-EJTAG_TMS
Text HLabel 5000 7250 0    50   Input ~ 0
RST_B
Wire Wire Line
	5000 7250 7250 7250
Wire Wire Line
	7250 7250 7250 6800
Wire Wire Line
	5000 7350 7350 7350
Wire Wire Line
	7350 7350 7350 6800
Wire Wire Line
	7450 6800 7450 7450
Wire Wire Line
	7450 7450 5000 7450
Wire Wire Line
	5000 7550 7550 7550
Wire Wire Line
	7550 7550 7550 6800
Wire Wire Line
	7650 6800 7650 7650
Wire Wire Line
	7650 7650 5000 7650
Text HLabel 5000 7850 0    50   Input ~ 0
GPIO4
Wire Wire Line
	5000 7850 8350 7850
Wire Wire Line
	8350 7850 8350 6800
Wire Wire Line
	8450 6800 8450 8050
Wire Wire Line
	8450 8050 5000 8050
Wire Wire Line
	5000 8150 8550 8150
Wire Wire Line
	8550 8150 8550 6800
NoConn ~ 12050 2250
NoConn ~ 12050 2350
NoConn ~ 12050 2450
NoConn ~ 12050 2550
NoConn ~ 12050 2650
NoConn ~ 12050 2750
NoConn ~ 12050 2850
NoConn ~ 12050 2950
NoConn ~ 12050 3600
NoConn ~ 12050 3700
NoConn ~ 12050 3800
NoConn ~ 12050 3900
NoConn ~ 12050 4000
NoConn ~ 12050 4100
NoConn ~ 12050 4200
NoConn ~ 12050 4300
Text HLabel 2200 1250 0    50   Input ~ 0
5V0_2GPA
NoConn ~ 5000 2350
NoConn ~ 5000 2450
NoConn ~ 5000 2550
NoConn ~ 5000 2650
NoConn ~ 5000 2750
NoConn ~ 5000 2850
Wire Wire Line
	11550 5900 12600 5900
Wire Wire Line
	12600 5900 12600 6000
Wire Wire Line
	12600 6300 11550 6300
Wire Wire Line
	11550 6200 12600 6200
Connection ~ 12600 6200
Wire Wire Line
	12600 6200 12600 6300
Wire Wire Line
	11550 6100 12600 6100
Connection ~ 12600 6100
Wire Wire Line
	12600 6100 12600 6200
Wire Wire Line
	11550 6000 12600 6000
Connection ~ 12600 6000
Wire Wire Line
	12600 6000 12600 6100
Wire Wire Line
	12600 5900 13000 5900
Connection ~ 12600 5900
Text Label 2650 1250 0    50   ~ 0
5V0_2GPA
Text Label 13000 5900 0    50   ~ 0
5V_1
Text Label 2650 1450 0    50   ~ 0
3V3
Wire Wire Line
	2200 1250 2650 1250
Wire Wire Line
	2650 1350 2200 1350
Wire Wire Line
	2200 1450 2650 1450
Wire Wire Line
	7350 3100 7350 2250
Wire Wire Line
	7350 2250 5000 2250
Connection ~ 7350 2250
Wire Wire Line
	7550 3100 7550 2250
Wire Wire Line
	7450 3100 7450 2250
Wire Wire Line
	7350 2250 7450 2250
Connection ~ 7450 2250
Wire Wire Line
	7450 2250 7550 2250
Wire Wire Line
	7850 3100 7850 3000
Wire Wire Line
	8750 3100 8750 3000
Wire Wire Line
	8750 3000 7850 3000
Connection ~ 7850 3000
Wire Wire Line
	9650 3100 9650 3000
Wire Wire Line
	9650 3000 8750 3000
Connection ~ 8750 3000
$Comp
L power:GND #PWR0121
U 1 1 5D233379
P 5400 3100
F 0 "#PWR0121" H 5400 2850 50  0001 C CNN
F 1 "GND" H 5405 2927 50  0000 C CNN
F 2 "" H 5400 3100 50  0001 C CNN
F 3 "" H 5400 3100 50  0001 C CNN
	1    5400 3100
	1    0    0    -1  
$EndComp
Wire Wire Line
	11550 5300 11750 5300
Wire Wire Line
	11750 5300 11750 5400
Wire Wire Line
	11550 5400 11750 5400
Connection ~ 11750 5400
Wire Wire Line
	11750 5400 11750 5500
Wire Wire Line
	11550 5500 11750 5500
Connection ~ 11750 5500
Wire Wire Line
	11750 5500 11750 5600
Wire Wire Line
	11550 5600 11750 5600
Connection ~ 11750 5600
Wire Wire Line
	11750 5600 11750 5700
Wire Wire Line
	11550 5700 11750 5700
Connection ~ 11750 5700
Wire Wire Line
	11750 5700 11750 5800
Wire Wire Line
	11550 5800 11750 5800
Connection ~ 11750 5800
Wire Wire Line
	11750 5800 11750 6500
$Comp
L power:GND #PWR0122
U 1 1 5D27B8DD
P 11750 6500
F 0 "#PWR0122" H 11750 6250 50  0001 C CNN
F 1 "GND" H 11755 6327 50  0000 C CNN
F 2 "" H 11750 6500 50  0001 C CNN
F 3 "" H 11750 6500 50  0001 C CNN
	1    11750 6500
	1    0    0    -1  
$EndComp
Wire Wire Line
	10450 6800 10450 6900
Wire Wire Line
	10450 6900 10150 6900
Wire Wire Line
	3750 6900 3750 7000
Wire Wire Line
	6750 6800 6750 6900
Connection ~ 6750 6900
Wire Wire Line
	6750 6900 5350 6900
Wire Wire Line
	7750 6800 7750 6900
Connection ~ 7750 6900
Wire Wire Line
	7750 6900 6750 6900
Wire Wire Line
	7850 6800 7850 6900
Connection ~ 7850 6900
Wire Wire Line
	7850 6900 7750 6900
Wire Wire Line
	7950 6800 7950 6900
Connection ~ 7950 6900
Wire Wire Line
	7950 6900 7850 6900
Wire Wire Line
	7150 6800 7150 8400
Wire Wire Line
	7150 8400 7050 8400
Wire Wire Line
	7050 6800 7050 8400
Connection ~ 7050 8400
Wire Wire Line
	7050 8400 4950 8400
Wire Wire Line
	8250 6800 8250 8650
Wire Wire Line
	8250 8650 8150 8650
Wire Wire Line
	8050 6800 8050 8650
Connection ~ 8050 8650
Wire Wire Line
	8050 8650 4950 8650
Wire Wire Line
	8150 6800 8150 8650
Connection ~ 8150 8650
Wire Wire Line
	8150 8650 8050 8650
Wire Wire Line
	10150 6800 10150 6900
Connection ~ 10150 6900
Wire Wire Line
	10150 6900 9850 6900
Wire Wire Line
	9850 6800 9850 6900
Connection ~ 9850 6900
Wire Wire Line
	9850 6900 7950 6900
$Comp
L power:GND #PWR0123
U 1 1 5D310B9F
P 3750 7000
F 0 "#PWR0123" H 3750 6750 50  0001 C CNN
F 1 "GND" H 3755 6827 50  0000 C CNN
F 2 "" H 3750 7000 50  0001 C CNN
F 3 "" H 3750 7000 50  0001 C CNN
	1    3750 7000
	1    0    0    -1  
$EndComp
Text Label 4950 8650 0    50   ~ 0
5V0_2GPA
Text Label 4950 8400 0    50   ~ 0
5V_1
Wire Wire Line
	11750 5300 11750 4400
Wire Wire Line
	11750 4400 11550 4400
Connection ~ 11750 5300
Text Label 5000 2250 0    50   ~ 0
3V3
Text Label 2650 1350 0    50   ~ 0
5V_1
Wire Wire Line
	5500 4400 5350 4400
Wire Wire Line
	5350 4400 5350 4700
Connection ~ 5350 6900
Wire Wire Line
	5350 6900 3750 6900
Wire Wire Line
	5500 4700 5350 4700
Connection ~ 5350 4700
Wire Wire Line
	5350 4700 5350 5000
Wire Wire Line
	5500 5000 5350 5000
Connection ~ 5350 5000
Wire Wire Line
	5350 5000 5350 5700
Wire Wire Line
	5500 5700 5350 5700
Connection ~ 5350 5700
Wire Wire Line
	5350 5700 5350 6000
Wire Wire Line
	5500 6000 5350 6000
Connection ~ 5350 6000
Wire Wire Line
	5350 6000 5350 6300
Wire Wire Line
	5500 6300 5350 6300
Connection ~ 5350 6300
Wire Wire Line
	5350 6300 5350 6900
Wire Wire Line
	5400 3000 5400 3100
Wire Wire Line
	5400 3000 7650 3000
Wire Wire Line
	7750 3100 7750 3000
Connection ~ 7750 3000
Wire Wire Line
	7750 3000 7850 3000
$Comp
L Core9558:Core9558 U1
U 1 1 5D47B6E1
P 8600 4950
F 0 "U1" H 8550 5100 50  0000 L CNN
F 1 "CORE9558_V2" H 8350 4800 50  0000 L CNN
F 2 "LibreRouter_MegaBoard:DRAGINO_CORE9558" H 8600 4600 50  0001 C CNN
F 3 "DOCUMENTATION" H 8600 4700 50  0001 C CNN
F 4 "" H 8600 4950 50  0001 C CNN "DNP"
F 5 "Dragino" H 8600 4950 50  0001 C CNN "Manufacturer"
F 6 "CORE9558 Module" H 8600 4950 50  0001 C CNN "Manufacturer PN"
	1    8600 4950
	1    0    0    -1  
$EndComp
Wire Wire Line
	7650 3100 7650 3000
Connection ~ 7650 3000
Wire Wire Line
	7650 3000 7750 3000
NoConn ~ 5000 4000
NoConn ~ 5000 4100
NoConn ~ 5000 4200
NoConn ~ 5000 4300
Text HLabel 12050 5200 2    50   Input ~ 0
S17_P0_TRX0+
Text HLabel 12050 5100 2    50   Input ~ 0
S17_P0_TRX0-
Text HLabel 12050 5000 2    50   Input ~ 0
S17_P0_TRX1+
Text HLabel 12050 4900 2    50   Input ~ 0
S17_P0_TRX1-
Text HLabel 12050 4800 2    50   Input ~ 0
S17_P0_TRX2+
Text HLabel 12050 4700 2    50   Input ~ 0
S17_P0_TRX2-
Text HLabel 12050 4600 2    50   Input ~ 0
S17_P0_TRX3+
Text HLabel 12050 4500 2    50   Input ~ 0
S17_P0_TRX3-
$EndSCHEMATC
