EESchema Schematic File Version 4
EELAYER 30 0
EELAYER END
$Descr A3 16535 11693
encoding utf-8
Sheet 12 14
Title "LibreRouter - Megaboard - Ethernet and PoE"
Date "2020-07-13"
Rev "1.4"
Comp "LibreRouter"
Comment1 ""
Comment2 ""
Comment3 ""
Comment4 ""
$EndDescr
Text HLabel 1350 6700 0    50   BiDi ~ 0
AT_TRX0_N
Text HLabel 1350 7100 0    50   BiDi ~ 0
AT_TRX0_P
Text HLabel 1350 4900 0    50   BiDi ~ 0
AT_TRX1_N
Text HLabel 1350 5300 0    50   BiDi ~ 0
AT_TRX1_P
Text HLabel 1350 3200 0    50   BiDi ~ 0
AT_TRX2_N
Text HLabel 1350 3600 0    50   BiDi ~ 0
AT_TRX2_P
Text HLabel 1350 1400 0    50   BiDi ~ 0
AT_TRX3_N
Text HLabel 1350 1800 0    50   BiDi ~ 0
AT_TRX3_P
Text HLabel 7000 6700 0    50   BiDi ~ 0
BT_TRX0_N
Text HLabel 7000 7100 0    50   BiDi ~ 0
BT_TRX0_P
Text HLabel 7000 4900 0    50   BiDi ~ 0
BT_TRX1_N
Text HLabel 7000 5300 0    50   BiDi ~ 0
BT_TRX1_P
Text HLabel 7000 3200 0    50   BiDi ~ 0
BT_TRX2_N
Text HLabel 7000 3600 0    50   BiDi ~ 0
BT_TRX2_P
Text HLabel 7000 1400 0    50   BiDi ~ 0
BT_TRX3_N
Text HLabel 7000 1800 0    50   BiDi ~ 0
BT_TRX3_P
Text HLabel 5100 6650 2    50   BiDi ~ 0
AM_TRX0_N
Text HLabel 5100 7150 2    50   BiDi ~ 0
AM_TRX0_P
Text HLabel 5100 4850 2    50   BiDi ~ 0
AM_TRX1_N
Text HLabel 5100 5350 2    50   BiDi ~ 0
AM_TRX1_P
Text HLabel 5100 3150 2    50   BiDi ~ 0
AM_TRX2_N
Text HLabel 5100 3650 2    50   BiDi ~ 0
AM_TRX2_P
Text HLabel 5100 1350 2    50   BiDi ~ 0
AM_TRX3_N
Text HLabel 5100 1850 2    50   BiDi ~ 0
AM_TRX3_P
Text HLabel 10750 6650 2    50   BiDi ~ 0
BM_TRX0_N
Text HLabel 10750 7150 2    50   BiDi ~ 0
BM_TRX0_P
Text HLabel 10750 4850 2    50   BiDi ~ 0
BM_TRX1_N
Text HLabel 10750 5350 2    50   BiDi ~ 0
BM_TRX1_P
Text HLabel 10750 3150 2    50   BiDi ~ 0
BM_TRX2_N
Text HLabel 10750 3650 2    50   BiDi ~ 0
BM_TRX2_P
Text HLabel 10750 1350 2    50   BiDi ~ 0
BM_TRX3_N
Text HLabel 10750 1850 2    50   BiDi ~ 0
BM_TRX3_P
Text HLabel 14600 7250 2    50   Input ~ 0
POE_INJECT_SOFT_EN
Text HLabel 13200 3700 0    50   Output ~ 0
POE_A
$Comp
L QT48A03:QT48A03 T1
U 1 1 5D45306C
P 3200 1600
F 0 "T1" H 3200 2065 50  0000 C CNN
F 1 "QT48A03" H 3200 1974 50  0000 C CNN
F 2 "LibreRouter_MegaBoard:QT48103" H 4050 2600 50  0001 C CNN
F 3 "" H 4050 2600 50  0001 C CNN
F 4 "TNK" H 3200 1600 50  0001 C CNN "Manufacturer"
F 5 "QT48A03" H 3200 1600 50  0001 C CNN "Manufacturer PN"
	1    3200 1600
	1    0    0    -1  
$EndComp
$Comp
L Device:C C5
U 1 1 5D45320B
P 2550 2050
F 0 "C5" H 2665 2096 50  0000 L CNN
F 1 "0.1uF, 10V" H 2665 2005 50  0000 L CNN
F 2 "LibreRouter_MegaBoard:C0402" H 2588 1900 50  0001 C CNN
F 3 "~" H 2550 2050 50  0001 C CNN
F 4 "Murata Electronics" H 2550 2050 50  0001 C CNN "Manufacturer"
F 5 "GCM155R71A104KA55D" H 2550 2050 50  0001 C CNN "Manufacturer PN"
F 6 "DigiKey" H 2550 2050 50  0001 C CNN "Supplier"
F 7 "490-16434-6-ND" H 2550 2050 50  0001 C CNN "Supplier PN"
F 8 "CL05B104KB54PNC/0402X104K500NT/CC0402KRX5R9BB104" H 2550 2050 50  0001 C CNN "ZAlt Manufacturer PN"
	1    2550 2050
	1    0    0    -1  
$EndComp
$Comp
L power:GND #PWR0177
U 1 1 5D453380
P 2550 2250
F 0 "#PWR0177" H 2550 2000 50  0001 C CNN
F 1 "GND" H 2555 2077 50  0000 C CNN
F 2 "" H 2550 2250 50  0001 C CNN
F 3 "" H 2550 2250 50  0001 C CNN
	1    2550 2250
	1    0    0    -1  
$EndComp
Wire Wire Line
	2550 2250 2550 2200
Wire Wire Line
	2550 1900 2550 1400
Wire Wire Line
	2550 1400 2700 1400
Wire Wire Line
	2700 1500 2150 1500
Wire Wire Line
	2700 1700 2150 1700
$Comp
L Device:D_TVS D9
U 1 1 5D47A51B
P 1700 1600
F 0 "D9" V 1654 1679 50  0000 L CNN
F 1 "BS05C" V 1745 1679 50  0000 L CNN
F 2 "LibreRouter_MegaBoard:SOD-323" H 1700 1600 50  0001 C CNN
F 3 "~" H 1700 1600 50  0001 C CNN
F 4 "DigiKey" H 1700 1600 50  0001 C CNN "Supplier"
F 5 "Bincheng Electronics" H 1700 1600 50  0001 C CNN "Manufacturer"
F 6 "BV05C" H 1700 1600 50  0001 C CNN "Manufacturer PN"
	1    1700 1600
	0    1    1    0   
$EndComp
Wire Wire Line
	1700 1450 1700 1400
Wire Wire Line
	1700 1400 2150 1400
Wire Wire Line
	2150 1400 2150 1500
Wire Wire Line
	1700 1750 1700 1800
Wire Wire Line
	1700 1800 2150 1800
Wire Wire Line
	2150 1800 2150 1700
Wire Wire Line
	1350 1400 1700 1400
Connection ~ 1700 1400
Wire Wire Line
	1350 1800 1700 1800
Connection ~ 1700 1800
$Comp
L 3R420L:3R420L P1
U 1 1 5D47AAF5
P 4600 1600
F 0 "P1" H 4778 1646 50  0000 L CNN
F 1 "3R420L" H 4778 1555 50  0000 L CNN
F 2 "LibreRouter_MegaBoard:GDT-LT-B3D090L" H 4600 1600 50  0001 C CNN
F 3 "" H 4600 1600 50  0001 C CNN
F 4 "Bincheng Electronics" H 4600 1600 50  0001 C CNN "Manufacturer"
F 5 "LTB3D090L" H 4600 1600 50  0001 C CNN "Manufacturer PN"
	1    4600 1600
	1    0    0    -1  
$EndComp
Wire Wire Line
	4350 1600 4150 1600
Wire Wire Line
	4150 1600 4150 2250
Wire Wire Line
	4000 1500 4000 1350
Wire Wire Line
	4000 1350 4600 1350
Wire Wire Line
	4000 1700 4000 1850
Wire Wire Line
	4000 1850 4600 1850
Wire Wire Line
	3700 1700 4000 1700
Wire Wire Line
	3700 1500 4000 1500
Wire Wire Line
	4600 1350 5100 1350
Connection ~ 4600 1350
Wire Wire Line
	4600 1850 5100 1850
Connection ~ 4600 1850
$Comp
L QT48A03:QT48A03 T1
U 2 1 5D47CF5A
P 3200 3400
F 0 "T1" H 3200 3865 50  0000 C CNN
F 1 "QT48A03" H 3200 3774 50  0000 C CNN
F 2 "LibreRouter_MegaBoard:QT48103" H 4050 4400 50  0001 C CNN
F 3 "" H 4050 4400 50  0001 C CNN
F 4 "TNK" H 3200 3400 50  0001 C CNN "Manufacturer"
F 5 "QT48A03" H 3200 3400 50  0001 C CNN "Manufacturer PN"
	2    3200 3400
	1    0    0    -1  
$EndComp
$Comp
L Device:C C10
U 1 1 5D47CF61
P 2550 3850
F 0 "C10" H 2665 3896 50  0000 L CNN
F 1 "0.1uF, 10V" H 2665 3805 50  0000 L CNN
F 2 "LibreRouter_MegaBoard:C0402" H 2588 3700 50  0001 C CNN
F 3 "~" H 2550 3850 50  0001 C CNN
F 4 "Murata Electronics" H 2550 3850 50  0001 C CNN "Manufacturer"
F 5 "GCM155R71A104KA55D" H 2550 3850 50  0001 C CNN "Manufacturer PN"
F 6 "DigiKey" H 2550 3850 50  0001 C CNN "Supplier"
F 7 "490-16434-6-ND" H 2550 3850 50  0001 C CNN "Supplier PN"
F 8 "CL05B104KB54PNC/0402X104K500NT/CC0402KRX5R9BB104" H 2550 3850 50  0001 C CNN "ZAlt Manufacturer PN"
	1    2550 3850
	1    0    0    -1  
$EndComp
$Comp
L power:GND #PWR0178
U 1 1 5D47CF68
P 2550 4050
F 0 "#PWR0178" H 2550 3800 50  0001 C CNN
F 1 "GND" H 2555 3877 50  0000 C CNN
F 2 "" H 2550 4050 50  0001 C CNN
F 3 "" H 2550 4050 50  0001 C CNN
	1    2550 4050
	1    0    0    -1  
$EndComp
Wire Wire Line
	2550 4050 2550 4000
Wire Wire Line
	2550 3700 2550 3200
Wire Wire Line
	2550 3200 2700 3200
Wire Wire Line
	2700 3300 2150 3300
Wire Wire Line
	2700 3500 2150 3500
$Comp
L Device:D_TVS D8
U 1 1 5D47CF73
P 1700 3400
F 0 "D8" V 1654 3479 50  0000 L CNN
F 1 "BS05C" V 1745 3479 50  0000 L CNN
F 2 "LibreRouter_MegaBoard:SOD-323" H 1700 3400 50  0001 C CNN
F 3 "~" H 1700 3400 50  0001 C CNN
F 4 "DigiKey" H 1700 3400 50  0001 C CNN "Supplier"
F 5 "Bincheng Electronics" H 1700 3400 50  0001 C CNN "Manufacturer"
F 6 "BV05C" H 1700 3400 50  0001 C CNN "Manufacturer PN"
	1    1700 3400
	0    1    1    0   
$EndComp
Wire Wire Line
	1700 3250 1700 3200
Wire Wire Line
	1700 3200 2150 3200
Wire Wire Line
	2150 3200 2150 3300
Wire Wire Line
	1700 3550 1700 3600
Wire Wire Line
	1700 3600 2150 3600
Wire Wire Line
	2150 3600 2150 3500
Wire Wire Line
	1350 3200 1700 3200
Connection ~ 1700 3200
Wire Wire Line
	1350 3600 1700 3600
Connection ~ 1700 3600
$Comp
L 3R420L:3R420L P2
U 1 1 5D47CF84
P 4600 3400
F 0 "P2" H 4778 3446 50  0000 L CNN
F 1 "3R420L" H 4778 3355 50  0000 L CNN
F 2 "LibreRouter_MegaBoard:GDT-LT-B3D090L" H 4600 3400 50  0001 C CNN
F 3 "" H 4600 3400 50  0001 C CNN
F 4 "Bincheng Electronics" H 4600 3400 50  0001 C CNN "Manufacturer"
F 5 "LTB3D090L" H 4600 3400 50  0001 C CNN "Manufacturer PN"
	1    4600 3400
	1    0    0    -1  
$EndComp
Wire Wire Line
	4350 3400 4150 3400
Wire Wire Line
	4150 3400 4150 4050
Wire Wire Line
	4000 3300 4000 3150
Wire Wire Line
	4000 3150 4600 3150
Wire Wire Line
	4000 3500 4000 3650
Wire Wire Line
	4000 3650 4600 3650
Wire Wire Line
	3700 3500 4000 3500
Wire Wire Line
	3700 3300 4000 3300
Wire Wire Line
	4600 3150 5100 3150
Connection ~ 4600 3150
Wire Wire Line
	4600 3650 5100 3650
Connection ~ 4600 3650
$Comp
L QT48A03:QT48A03 T1
U 3 1 5D47E738
P 3200 5100
F 0 "T1" H 3200 5565 50  0000 C CNN
F 1 "QT48A03" H 3200 5474 50  0000 C CNN
F 2 "LibreRouter_MegaBoard:QT48103" H 4050 6100 50  0001 C CNN
F 3 "" H 4050 6100 50  0001 C CNN
F 4 "TNK" H 3200 5100 50  0001 C CNN "Manufacturer"
F 5 "QT48A03" H 3200 5100 50  0001 C CNN "Manufacturer PN"
	3    3200 5100
	1    0    0    -1  
$EndComp
$Comp
L Device:C C11
U 1 1 5D47E73F
P 2550 5550
F 0 "C11" H 2665 5596 50  0000 L CNN
F 1 "0.1uF, 10V" H 2665 5505 50  0000 L CNN
F 2 "LibreRouter_MegaBoard:C0402" H 2588 5400 50  0001 C CNN
F 3 "~" H 2550 5550 50  0001 C CNN
F 4 "Murata Electronics" H 2550 5550 50  0001 C CNN "Manufacturer"
F 5 "GCM155R71A104KA55D" H 2550 5550 50  0001 C CNN "Manufacturer PN"
F 6 "DigiKey" H 2550 5550 50  0001 C CNN "Supplier"
F 7 "490-16434-6-ND" H 2550 5550 50  0001 C CNN "Supplier PN"
F 8 "CL05B104KB54PNC/0402X104K500NT/CC0402KRX5R9BB104" H 2550 5550 50  0001 C CNN "ZAlt Manufacturer PN"
	1    2550 5550
	1    0    0    -1  
$EndComp
$Comp
L power:GND #PWR0179
U 1 1 5D47E746
P 2550 5750
F 0 "#PWR0179" H 2550 5500 50  0001 C CNN
F 1 "GND" H 2555 5577 50  0000 C CNN
F 2 "" H 2550 5750 50  0001 C CNN
F 3 "" H 2550 5750 50  0001 C CNN
	1    2550 5750
	1    0    0    -1  
$EndComp
Wire Wire Line
	2550 5750 2550 5700
Wire Wire Line
	2550 5400 2550 4900
Wire Wire Line
	2550 4900 2700 4900
Wire Wire Line
	2700 5000 2150 5000
Wire Wire Line
	2700 5200 2150 5200
$Comp
L Device:D_TVS D10
U 1 1 5D47E751
P 1700 5100
F 0 "D10" V 1654 5179 50  0000 L CNN
F 1 "BS05C" V 1745 5179 50  0000 L CNN
F 2 "LibreRouter_MegaBoard:SOD-323" H 1700 5100 50  0001 C CNN
F 3 "~" H 1700 5100 50  0001 C CNN
F 4 "DigiKey" H 1700 5100 50  0001 C CNN "Supplier"
F 5 "Bincheng Electronics" H 1700 5100 50  0001 C CNN "Manufacturer"
F 6 "BV05C" H 1700 5100 50  0001 C CNN "Manufacturer PN"
	1    1700 5100
	0    1    1    0   
$EndComp
Wire Wire Line
	1700 4950 1700 4900
Wire Wire Line
	1700 4900 2150 4900
Wire Wire Line
	2150 4900 2150 5000
Wire Wire Line
	1700 5250 1700 5300
Wire Wire Line
	1700 5300 2150 5300
Wire Wire Line
	2150 5300 2150 5200
Wire Wire Line
	1350 4900 1700 4900
Connection ~ 1700 4900
Wire Wire Line
	1350 5300 1700 5300
Connection ~ 1700 5300
$Comp
L 3R420L:3R420L P3
U 1 1 5D47E762
P 4600 5100
F 0 "P3" H 4778 5146 50  0000 L CNN
F 1 "3R420L" H 4778 5055 50  0000 L CNN
F 2 "LibreRouter_MegaBoard:GDT-LT-B3D090L" H 4600 5100 50  0001 C CNN
F 3 "" H 4600 5100 50  0001 C CNN
F 4 "Bincheng Electronics" H 4600 5100 50  0001 C CNN "Manufacturer"
F 5 "LTB3D090L" H 4600 5100 50  0001 C CNN "Manufacturer PN"
	1    4600 5100
	1    0    0    -1  
$EndComp
Wire Wire Line
	4350 5100 4150 5100
Wire Wire Line
	4150 5100 4150 5750
Wire Wire Line
	4000 5000 4000 4850
Wire Wire Line
	4000 4850 4600 4850
Wire Wire Line
	4000 5200 4000 5350
Wire Wire Line
	4000 5350 4600 5350
Wire Wire Line
	3700 5200 4000 5200
Wire Wire Line
	3700 5000 4000 5000
Wire Wire Line
	4600 4850 5100 4850
Connection ~ 4600 4850
Wire Wire Line
	4600 5350 5100 5350
Connection ~ 4600 5350
$Comp
L QT48A03:QT48A03 T1
U 4 1 5D47E77B
P 3200 6900
F 0 "T1" H 3200 7365 50  0000 C CNN
F 1 "QT48A03" H 3200 7274 50  0000 C CNN
F 2 "LibreRouter_MegaBoard:QT48103" H 4050 7900 50  0001 C CNN
F 3 "" H 4050 7900 50  0001 C CNN
F 4 "TNK" H 3200 6900 50  0001 C CNN "Manufacturer"
F 5 "QT48A03" H 3200 6900 50  0001 C CNN "Manufacturer PN"
	4    3200 6900
	1    0    0    -1  
$EndComp
$Comp
L Device:C C33
U 1 1 5D47E782
P 2550 7350
F 0 "C33" H 2665 7396 50  0000 L CNN
F 1 "0.1uF, 10V" H 2665 7305 50  0000 L CNN
F 2 "LibreRouter_MegaBoard:C0402" H 2588 7200 50  0001 C CNN
F 3 "~" H 2550 7350 50  0001 C CNN
F 4 "Murata Electronics" H 2550 7350 50  0001 C CNN "Manufacturer"
F 5 "GCM155R71A104KA55D" H 2550 7350 50  0001 C CNN "Manufacturer PN"
F 6 "DigiKey" H 2550 7350 50  0001 C CNN "Supplier"
F 7 "490-16434-6-ND" H 2550 7350 50  0001 C CNN "Supplier PN"
F 8 "CL05B104KB54PNC/0402X104K500NT/CC0402KRX5R9BB104" H 2550 7350 50  0001 C CNN "ZAlt Manufacturer PN"
	1    2550 7350
	1    0    0    -1  
$EndComp
$Comp
L power:GND #PWR0180
U 1 1 5D47E789
P 2550 7550
F 0 "#PWR0180" H 2550 7300 50  0001 C CNN
F 1 "GND" H 2555 7377 50  0000 C CNN
F 2 "" H 2550 7550 50  0001 C CNN
F 3 "" H 2550 7550 50  0001 C CNN
	1    2550 7550
	1    0    0    -1  
$EndComp
Wire Wire Line
	2550 7550 2550 7500
Wire Wire Line
	2550 7200 2550 6700
Wire Wire Line
	2550 6700 2700 6700
Wire Wire Line
	2700 6800 2150 6800
Wire Wire Line
	2700 7000 2150 7000
$Comp
L Device:D_TVS D11
U 1 1 5D47E794
P 1700 6900
F 0 "D11" V 1654 6979 50  0000 L CNN
F 1 "BS05C" V 1745 6979 50  0000 L CNN
F 2 "LibreRouter_MegaBoard:SOD-323" H 1700 6900 50  0001 C CNN
F 3 "~" H 1700 6900 50  0001 C CNN
F 4 "DigiKey" H 1700 6900 50  0001 C CNN "Supplier"
F 5 "Bincheng Electronics" H 1700 6900 50  0001 C CNN "Manufacturer"
F 6 "BV05C" H 1700 6900 50  0001 C CNN "Manufacturer PN"
	1    1700 6900
	0    1    1    0   
$EndComp
Wire Wire Line
	1700 6750 1700 6700
Wire Wire Line
	1700 6700 2150 6700
Wire Wire Line
	2150 6700 2150 6800
Wire Wire Line
	1700 7050 1700 7100
Wire Wire Line
	1700 7100 2150 7100
Wire Wire Line
	2150 7100 2150 7000
Wire Wire Line
	1350 6700 1700 6700
Connection ~ 1700 6700
Wire Wire Line
	1350 7100 1700 7100
Connection ~ 1700 7100
$Comp
L 3R420L:3R420L P4
U 1 1 5D47E7A5
P 4600 6900
F 0 "P4" H 4778 6946 50  0000 L CNN
F 1 "3R420L" H 4778 6855 50  0000 L CNN
F 2 "LibreRouter_MegaBoard:GDT-LT-B3D090L" H 4600 6900 50  0001 C CNN
F 3 "" H 4600 6900 50  0001 C CNN
F 4 "Bincheng Electronics" H 4600 6900 50  0001 C CNN "Manufacturer"
F 5 "LTB3D090L" H 4600 6900 50  0001 C CNN "Manufacturer PN"
	1    4600 6900
	1    0    0    -1  
$EndComp
Wire Wire Line
	4350 6900 4150 6900
Wire Wire Line
	4150 6900 4150 7550
Wire Wire Line
	4000 6800 4000 6650
Wire Wire Line
	4000 6650 4600 6650
Wire Wire Line
	4000 7000 4000 7150
Wire Wire Line
	4000 7150 4600 7150
Wire Wire Line
	3700 7000 4000 7000
Wire Wire Line
	3700 6800 4000 6800
Wire Wire Line
	4600 6650 5100 6650
Connection ~ 4600 6650
Wire Wire Line
	4600 7150 5100 7150
Connection ~ 4600 7150
$Comp
L QT48A03:QT48A03 T1
U 5 1 5D481F80
P 8850 1600
F 0 "T1" H 8850 2065 50  0000 C CNN
F 1 "QT48A03" H 8850 1974 50  0000 C CNN
F 2 "LibreRouter_MegaBoard:QT48103" H 9700 2600 50  0001 C CNN
F 3 "" H 9700 2600 50  0001 C CNN
F 4 "TNK" H 8850 1600 50  0001 C CNN "Manufacturer"
F 5 "QT48A03" H 8850 1600 50  0001 C CNN "Manufacturer PN"
	5    8850 1600
	1    0    0    -1  
$EndComp
$Comp
L Device:C C34
U 1 1 5D481F87
P 8200 2050
F 0 "C34" H 8315 2096 50  0000 L CNN
F 1 "0.1uF, 10V" H 8315 2005 50  0000 L CNN
F 2 "LibreRouter_MegaBoard:C0402" H 8238 1900 50  0001 C CNN
F 3 "~" H 8200 2050 50  0001 C CNN
F 4 "Murata Electronics" H 8200 2050 50  0001 C CNN "Manufacturer"
F 5 "GCM155R71A104KA55D" H 8200 2050 50  0001 C CNN "Manufacturer PN"
F 6 "DigiKey" H 8200 2050 50  0001 C CNN "Supplier"
F 7 "490-16434-6-ND" H 8200 2050 50  0001 C CNN "Supplier PN"
F 8 "CL05B104KB54PNC/0402X104K500NT/CC0402KRX5R9BB104" H 8200 2050 50  0001 C CNN "ZAlt Manufacturer PN"
	1    8200 2050
	1    0    0    -1  
$EndComp
$Comp
L power:GND #PWR0181
U 1 1 5D481F8E
P 8200 2250
F 0 "#PWR0181" H 8200 2000 50  0001 C CNN
F 1 "GND" H 8205 2077 50  0000 C CNN
F 2 "" H 8200 2250 50  0001 C CNN
F 3 "" H 8200 2250 50  0001 C CNN
	1    8200 2250
	1    0    0    -1  
$EndComp
Wire Wire Line
	8200 2250 8200 2200
Wire Wire Line
	8200 1900 8200 1400
Wire Wire Line
	8200 1400 8350 1400
Wire Wire Line
	8350 1500 7800 1500
Wire Wire Line
	8350 1700 7800 1700
$Comp
L Device:D_TVS D4
U 1 1 5D481F99
P 7350 1600
F 0 "D4" V 7304 1679 50  0000 L CNN
F 1 "BS05C" V 7395 1679 50  0000 L CNN
F 2 "LibreRouter_MegaBoard:SOD-323" H 7350 1600 50  0001 C CNN
F 3 "~" H 7350 1600 50  0001 C CNN
F 4 "DigiKey" H 7350 1600 50  0001 C CNN "Supplier"
F 5 "Bincheng Electronics" H 7350 1600 50  0001 C CNN "Manufacturer"
F 6 "BV05C" H 7350 1600 50  0001 C CNN "Manufacturer PN"
	1    7350 1600
	0    1    1    0   
$EndComp
Wire Wire Line
	7350 1450 7350 1400
Wire Wire Line
	7350 1400 7800 1400
Wire Wire Line
	7800 1400 7800 1500
Wire Wire Line
	7350 1750 7350 1800
Wire Wire Line
	7350 1800 7800 1800
Wire Wire Line
	7800 1800 7800 1700
Wire Wire Line
	7000 1400 7350 1400
Connection ~ 7350 1400
Wire Wire Line
	7000 1800 7350 1800
Connection ~ 7350 1800
$Comp
L 3R420L:3R420L P6
U 1 1 5D481FAA
P 10250 1600
F 0 "P6" H 10428 1646 50  0000 L CNN
F 1 "3R420L" H 10428 1555 50  0000 L CNN
F 2 "LibreRouter_MegaBoard:GDT-LT-B3D090L" H 10250 1600 50  0001 C CNN
F 3 "" H 10250 1600 50  0001 C CNN
F 4 "Bincheng Electronics" H 10250 1600 50  0001 C CNN "Manufacturer"
F 5 "LTB3D090L" H 10250 1600 50  0001 C CNN "Manufacturer PN"
	1    10250 1600
	1    0    0    -1  
$EndComp
Wire Wire Line
	10000 1600 9800 1600
Wire Wire Line
	9800 1600 9800 2250
Wire Wire Line
	9650 1500 9650 1350
Wire Wire Line
	9650 1350 10250 1350
Wire Wire Line
	9650 1700 9650 1850
Wire Wire Line
	9650 1850 10250 1850
Wire Wire Line
	9350 1700 9650 1700
Wire Wire Line
	9350 1500 9650 1500
Wire Wire Line
	10250 1350 10750 1350
Connection ~ 10250 1350
Wire Wire Line
	10250 1850 10750 1850
Connection ~ 10250 1850
$Comp
L QT48A03:QT48A03 T1
U 6 1 5D481FC3
P 8850 3400
F 0 "T1" H 8850 3865 50  0000 C CNN
F 1 "QT48A03" H 8850 3774 50  0000 C CNN
F 2 "LibreRouter_MegaBoard:QT48103" H 9700 4400 50  0001 C CNN
F 3 "" H 9700 4400 50  0001 C CNN
F 4 "TNK" H 8850 3400 50  0001 C CNN "Manufacturer"
F 5 "QT48A03" H 8850 3400 50  0001 C CNN "Manufacturer PN"
	6    8850 3400
	1    0    0    -1  
$EndComp
$Comp
L Device:C C35
U 1 1 5D481FCA
P 8200 3850
F 0 "C35" H 8315 3896 50  0000 L CNN
F 1 "0.1uF, 10V" H 8315 3805 50  0000 L CNN
F 2 "LibreRouter_MegaBoard:C0402" H 8238 3700 50  0001 C CNN
F 3 "~" H 8200 3850 50  0001 C CNN
F 4 "Murata Electronics" H 8200 3850 50  0001 C CNN "Manufacturer"
F 5 "GCM155R71A104KA55D" H 8200 3850 50  0001 C CNN "Manufacturer PN"
F 6 "DigiKey" H 8200 3850 50  0001 C CNN "Supplier"
F 7 "490-16434-6-ND" H 8200 3850 50  0001 C CNN "Supplier PN"
F 8 "CL05B104KB54PNC/0402X104K500NT/CC0402KRX5R9BB104" H 8200 3850 50  0001 C CNN "ZAlt Manufacturer PN"
	1    8200 3850
	1    0    0    -1  
$EndComp
$Comp
L power:GND #PWR0182
U 1 1 5D481FD1
P 8200 4050
F 0 "#PWR0182" H 8200 3800 50  0001 C CNN
F 1 "GND" H 8205 3877 50  0000 C CNN
F 2 "" H 8200 4050 50  0001 C CNN
F 3 "" H 8200 4050 50  0001 C CNN
	1    8200 4050
	1    0    0    -1  
$EndComp
Wire Wire Line
	8200 4050 8200 4000
Wire Wire Line
	8200 3700 8200 3200
Wire Wire Line
	8200 3200 8350 3200
Wire Wire Line
	8350 3300 7800 3300
Wire Wire Line
	8350 3500 7800 3500
$Comp
L Device:D_TVS D3
U 1 1 5D481FDC
P 7350 3400
F 0 "D3" V 7304 3479 50  0000 L CNN
F 1 "BS05C" V 7395 3479 50  0000 L CNN
F 2 "LibreRouter_MegaBoard:SOD-323" H 7350 3400 50  0001 C CNN
F 3 "~" H 7350 3400 50  0001 C CNN
F 4 "DigiKey" H 7350 3400 50  0001 C CNN "Supplier"
F 5 "Bincheng Electronics" H 7350 3400 50  0001 C CNN "Manufacturer"
F 6 "BV05C" H 7350 3400 50  0001 C CNN "Manufacturer PN"
	1    7350 3400
	0    1    1    0   
$EndComp
Wire Wire Line
	7350 3250 7350 3200
Wire Wire Line
	7350 3200 7800 3200
Wire Wire Line
	7800 3200 7800 3300
Wire Wire Line
	7350 3550 7350 3600
Wire Wire Line
	7350 3600 7800 3600
Wire Wire Line
	7800 3600 7800 3500
Wire Wire Line
	7000 3200 7350 3200
Connection ~ 7350 3200
Wire Wire Line
	7000 3600 7350 3600
Connection ~ 7350 3600
$Comp
L 3R420L:3R420L P7
U 1 1 5D481FED
P 10250 3400
F 0 "P7" H 10428 3446 50  0000 L CNN
F 1 "3R420L" H 10428 3355 50  0000 L CNN
F 2 "LibreRouter_MegaBoard:GDT-LT-B3D090L" H 10250 3400 50  0001 C CNN
F 3 "" H 10250 3400 50  0001 C CNN
F 4 "Bincheng Electronics" H 10250 3400 50  0001 C CNN "Manufacturer"
F 5 "LTB3D090L" H 10250 3400 50  0001 C CNN "Manufacturer PN"
	1    10250 3400
	1    0    0    -1  
$EndComp
Wire Wire Line
	10000 3400 9800 3400
Wire Wire Line
	9800 3400 9800 4050
Wire Wire Line
	9650 3300 9650 3150
Wire Wire Line
	9650 3150 10250 3150
Wire Wire Line
	9650 3500 9650 3650
Wire Wire Line
	9650 3650 10250 3650
Wire Wire Line
	9350 3500 9650 3500
Wire Wire Line
	9350 3300 9650 3300
Wire Wire Line
	10250 3150 10750 3150
Connection ~ 10250 3150
Wire Wire Line
	10250 3650 10750 3650
Connection ~ 10250 3650
$Comp
L QT48A03:QT48A03 T1
U 7 1 5D482006
P 8850 5100
F 0 "T1" H 8850 5565 50  0000 C CNN
F 1 "QT48A03" H 8850 5474 50  0000 C CNN
F 2 "LibreRouter_MegaBoard:QT48103" H 9700 6100 50  0001 C CNN
F 3 "" H 9700 6100 50  0001 C CNN
F 4 "TNK" H 8850 5100 50  0001 C CNN "Manufacturer"
F 5 "QT48A03" H 8850 5100 50  0001 C CNN "Manufacturer PN"
	7    8850 5100
	1    0    0    -1  
$EndComp
$Comp
L Device:C C37
U 1 1 5D48200D
P 8200 5550
F 0 "C37" H 8315 5596 50  0000 L CNN
F 1 "0.1uF, 10V" H 8315 5505 50  0000 L CNN
F 2 "LibreRouter_MegaBoard:C0402" H 8238 5400 50  0001 C CNN
F 3 "~" H 8200 5550 50  0001 C CNN
F 4 "Murata Electronics" H 8200 5550 50  0001 C CNN "Manufacturer"
F 5 "GCM155R71A104KA55D" H 8200 5550 50  0001 C CNN "Manufacturer PN"
F 6 "DigiKey" H 8200 5550 50  0001 C CNN "Supplier"
F 7 "490-16434-6-ND" H 8200 5550 50  0001 C CNN "Supplier PN"
F 8 "CL05B104KB54PNC/0402X104K500NT/CC0402KRX5R9BB104" H 8200 5550 50  0001 C CNN "ZAlt Manufacturer PN"
	1    8200 5550
	1    0    0    -1  
$EndComp
$Comp
L power:GND #PWR0183
U 1 1 5D482014
P 8200 5750
F 0 "#PWR0183" H 8200 5500 50  0001 C CNN
F 1 "GND" H 8205 5577 50  0000 C CNN
F 2 "" H 8200 5750 50  0001 C CNN
F 3 "" H 8200 5750 50  0001 C CNN
	1    8200 5750
	1    0    0    -1  
$EndComp
Wire Wire Line
	8200 5750 8200 5700
Wire Wire Line
	8200 5400 8200 4900
Wire Wire Line
	8200 4900 8350 4900
Wire Wire Line
	8350 5000 7800 5000
Wire Wire Line
	8350 5200 7800 5200
$Comp
L Device:D_TVS D6
U 1 1 5D48201F
P 7350 5100
F 0 "D6" V 7304 5179 50  0000 L CNN
F 1 "BS05C" V 7395 5179 50  0000 L CNN
F 2 "LibreRouter_MegaBoard:SOD-323" H 7350 5100 50  0001 C CNN
F 3 "~" H 7350 5100 50  0001 C CNN
F 4 "DigiKey" H 7350 5100 50  0001 C CNN "Supplier"
F 5 "Bincheng Electronics" H 7350 5100 50  0001 C CNN "Manufacturer"
F 6 "BV05C" H 7350 5100 50  0001 C CNN "Manufacturer PN"
	1    7350 5100
	0    1    1    0   
$EndComp
Wire Wire Line
	7350 4950 7350 4900
Wire Wire Line
	7350 4900 7800 4900
Wire Wire Line
	7800 4900 7800 5000
Wire Wire Line
	7350 5250 7350 5300
Wire Wire Line
	7350 5300 7800 5300
Wire Wire Line
	7800 5300 7800 5200
Wire Wire Line
	7000 4900 7350 4900
Connection ~ 7350 4900
Wire Wire Line
	7000 5300 7350 5300
Connection ~ 7350 5300
$Comp
L 3R420L:3R420L P8
U 1 1 5D482030
P 10250 5100
F 0 "P8" H 10428 5146 50  0000 L CNN
F 1 "3R420L" H 10428 5055 50  0000 L CNN
F 2 "LibreRouter_MegaBoard:GDT-LT-B3D090L" H 10250 5100 50  0001 C CNN
F 3 "" H 10250 5100 50  0001 C CNN
F 4 "Bincheng Electronics" H 10250 5100 50  0001 C CNN "Manufacturer"
F 5 "LTB3D090L" H 10250 5100 50  0001 C CNN "Manufacturer PN"
	1    10250 5100
	1    0    0    -1  
$EndComp
Wire Wire Line
	10000 5100 9800 5100
Wire Wire Line
	9800 5100 9800 5750
Wire Wire Line
	9650 5000 9650 4850
Wire Wire Line
	9650 4850 10250 4850
Wire Wire Line
	9650 5200 9650 5350
Wire Wire Line
	9650 5350 10250 5350
Wire Wire Line
	9350 5200 9650 5200
Wire Wire Line
	9350 5000 9650 5000
Wire Wire Line
	10250 4850 10750 4850
Connection ~ 10250 4850
Wire Wire Line
	10250 5350 10750 5350
Connection ~ 10250 5350
$Comp
L QT48A03:QT48A03 T1
U 8 1 5D482049
P 8850 6900
F 0 "T1" H 8850 7365 50  0000 C CNN
F 1 "QT48A03" H 8850 7274 50  0000 C CNN
F 2 "LibreRouter_MegaBoard:QT48103" H 9700 7900 50  0001 C CNN
F 3 "" H 9700 7900 50  0001 C CNN
F 4 "TNK" H 8850 6900 50  0001 C CNN "Manufacturer"
F 5 "QT48A03" H 8850 6900 50  0001 C CNN "Manufacturer PN"
	8    8850 6900
	1    0    0    -1  
$EndComp
$Comp
L Device:C C137
U 1 1 5D482050
P 8200 7350
F 0 "C137" H 8315 7396 50  0000 L CNN
F 1 "0.1uF, 10V" H 8315 7305 50  0000 L CNN
F 2 "LibreRouter_MegaBoard:C0402" H 8238 7200 50  0001 C CNN
F 3 "~" H 8200 7350 50  0001 C CNN
F 4 "Murata Electronics" H 8200 7350 50  0001 C CNN "Manufacturer"
F 5 "GCM155R71A104KA55D" H 8200 7350 50  0001 C CNN "Manufacturer PN"
F 6 "DigiKey" H 8200 7350 50  0001 C CNN "Supplier"
F 7 "490-16434-6-ND" H 8200 7350 50  0001 C CNN "Supplier PN"
F 8 "CL05B104KB54PNC/0402X104K500NT/CC0402KRX5R9BB104" H 8200 7350 50  0001 C CNN "ZAlt Manufacturer PN"
	1    8200 7350
	1    0    0    -1  
$EndComp
$Comp
L power:GND #PWR0184
U 1 1 5D482057
P 8200 7550
F 0 "#PWR0184" H 8200 7300 50  0001 C CNN
F 1 "GND" H 8205 7377 50  0000 C CNN
F 2 "" H 8200 7550 50  0001 C CNN
F 3 "" H 8200 7550 50  0001 C CNN
	1    8200 7550
	1    0    0    -1  
$EndComp
Wire Wire Line
	8200 7550 8200 7500
Wire Wire Line
	8200 7200 8200 6700
Wire Wire Line
	8200 6700 8350 6700
Wire Wire Line
	8350 6800 7800 6800
Wire Wire Line
	8350 7000 7800 7000
$Comp
L Device:D_TVS D7
U 1 1 5D482062
P 7350 6900
F 0 "D7" V 7304 6979 50  0000 L CNN
F 1 "BS05C" V 7395 6979 50  0000 L CNN
F 2 "LibreRouter_MegaBoard:SOD-323" H 7350 6900 50  0001 C CNN
F 3 "~" H 7350 6900 50  0001 C CNN
F 4 "DigiKey" H 7350 6900 50  0001 C CNN "Supplier"
F 5 "Bincheng Electronics" H 7350 6900 50  0001 C CNN "Manufacturer"
F 6 "BV05C" H 7350 6900 50  0001 C CNN "Manufacturer PN"
	1    7350 6900
	0    1    1    0   
$EndComp
Wire Wire Line
	7350 6750 7350 6700
Wire Wire Line
	7350 6700 7800 6700
Wire Wire Line
	7800 6700 7800 6800
Wire Wire Line
	7350 7050 7350 7100
Wire Wire Line
	7350 7100 7800 7100
Wire Wire Line
	7800 7100 7800 7000
Wire Wire Line
	7000 6700 7350 6700
Connection ~ 7350 6700
Wire Wire Line
	7000 7100 7350 7100
Connection ~ 7350 7100
$Comp
L 3R420L:3R420L P5
U 1 1 5D482073
P 10250 6900
F 0 "P5" H 10428 6946 50  0000 L CNN
F 1 "3R420L" H 10428 6855 50  0000 L CNN
F 2 "LibreRouter_MegaBoard:GDT-LT-B3D090L" H 10250 6900 50  0001 C CNN
F 3 "" H 10250 6900 50  0001 C CNN
F 4 "Bincheng Electronics" H 10250 6900 50  0001 C CNN "Manufacturer"
F 5 "LTB3D090L" H 10250 6900 50  0001 C CNN "Manufacturer PN"
	1    10250 6900
	1    0    0    -1  
$EndComp
Wire Wire Line
	10000 6900 9800 6900
Wire Wire Line
	9800 6900 9800 7550
Wire Wire Line
	9650 6800 9650 6650
Wire Wire Line
	9650 6650 10250 6650
Wire Wire Line
	9650 7000 9650 7150
Wire Wire Line
	9650 7150 10250 7150
Wire Wire Line
	9350 7000 9650 7000
Wire Wire Line
	9350 6800 9650 6800
Wire Wire Line
	10250 6650 10750 6650
Connection ~ 10250 6650
Wire Wire Line
	10250 7150 10750 7150
Connection ~ 10250 7150
Text Label 4000 1150 0    50   ~ 0
MCT1-5
Text Label 4000 2950 0    50   ~ 0
MCT2
Text Label 9650 1150 0    50   ~ 0
MCT1-5
Text Label 9650 2950 0    50   ~ 0
MCT6
Text Label 9650 4650 0    50   ~ 0
MCT7
Text Label 9650 6450 0    50   ~ 0
MCT8
Text Label 4000 4650 0    50   ~ 0
MCT3
Text Label 4000 6450 0    50   ~ 0
MCT4
Wire Wire Line
	4000 1150 3850 1150
Wire Wire Line
	3850 1150 3850 1400
Wire Wire Line
	3850 1400 3700 1400
Wire Wire Line
	4000 2950 3850 2950
Wire Wire Line
	3850 2950 3850 3200
Wire Wire Line
	3850 3200 3700 3200
Wire Wire Line
	4000 4650 3850 4650
Wire Wire Line
	3850 4650 3850 4900
Wire Wire Line
	3850 4900 3700 4900
Wire Wire Line
	4000 6450 3850 6450
Wire Wire Line
	3850 6450 3850 6700
Wire Wire Line
	3850 6700 3700 6700
Wire Wire Line
	9650 6450 9500 6450
Wire Wire Line
	9500 6450 9500 6700
Wire Wire Line
	9500 6700 9350 6700
Wire Wire Line
	9650 4650 9500 4650
Wire Wire Line
	9500 4650 9500 4900
Wire Wire Line
	9500 4900 9350 4900
Wire Wire Line
	9650 2950 9500 2950
Wire Wire Line
	9500 2950 9500 3200
Wire Wire Line
	9500 3200 9350 3200
Wire Wire Line
	9650 1150 9500 1150
Wire Wire Line
	9500 1150 9500 1400
Wire Wire Line
	9500 1400 9350 1400
$Comp
L Device:R R2
U 1 1 5D4DF89D
P 3950 9000
F 0 "R2" V 3850 9100 50  0000 C CNN
F 1 "75" V 3850 8900 50  0000 C CNN
F 2 "LibreRouter_MegaBoard:R0402" V 3880 9000 50  0001 C CNN
F 3 "~" H 3950 9000 50  0001 C CNN
F 4 "DNP" H 3950 9000 50  0001 C CNN "DNP"
F 5 "Panasonic Electronic Components" H 3950 9000 50  0001 C CNN "Manufacturer"
F 6 "ERJ-2BWFR075X" H 3950 9000 50  0001 C CNN "Manufacturer PN"
F 7 "DigiKey" H 3950 9000 50  0001 C CNN "Supplier"
F 8 "P.075ATDKR-ND" H 3950 9000 50  0001 C CNN "Supplier PN"
F 9 "0402WGF750JTCE" H 3950 9000 50  0001 C CNN "ZAlt Manufacturer PN"
	1    3950 9000
	0    1    1    0   
$EndComp
$Comp
L Device:R R6
U 1 1 5D4DFAC1
P 3950 9300
F 0 "R6" V 3850 9400 50  0000 C CNN
F 1 "75" V 3850 9200 50  0000 C CNN
F 2 "LibreRouter_MegaBoard:R0402" V 3880 9300 50  0001 C CNN
F 3 "~" H 3950 9300 50  0001 C CNN
F 4 "Panasonic Electronic Components" H 3950 9300 50  0001 C CNN "Manufacturer"
F 5 "ERJ-2BWFR075X" H 3950 9300 50  0001 C CNN "Manufacturer PN"
F 6 "DigiKey" H 3950 9300 50  0001 C CNN "Supplier"
F 7 "P.075ATDKR-ND" H 3950 9300 50  0001 C CNN "Supplier PN"
F 8 "0402WGF750JTCE" H 3950 9300 50  0001 C CNN "ZAlt Manufacturer PN"
	1    3950 9300
	0    1    1    0   
$EndComp
$Comp
L Device:R R29
U 1 1 5D4DFC33
P 3950 9600
F 0 "R29" V 3850 9700 50  0000 C CNN
F 1 "75" V 3850 9500 50  0000 C CNN
F 2 "LibreRouter_MegaBoard:R0402" V 3880 9600 50  0001 C CNN
F 3 "~" H 3950 9600 50  0001 C CNN
F 4 "Panasonic Electronic Components" H 3950 9600 50  0001 C CNN "Manufacturer"
F 5 "ERJ-2BWFR075X" H 3950 9600 50  0001 C CNN "Manufacturer PN"
F 6 "DigiKey" H 3950 9600 50  0001 C CNN "Supplier"
F 7 "P.075ATDKR-ND" H 3950 9600 50  0001 C CNN "Supplier PN"
F 8 "0402WGF750JTCE" H 3950 9600 50  0001 C CNN "ZAlt Manufacturer PN"
	1    3950 9600
	0    1    1    0   
$EndComp
$Comp
L Device:R R30
U 1 1 5D4DFC3A
P 3950 9900
F 0 "R30" V 3850 10000 50  0000 C CNN
F 1 "75" V 3850 9800 50  0000 C CNN
F 2 "LibreRouter_MegaBoard:R0402" V 3880 9900 50  0001 C CNN
F 3 "~" H 3950 9900 50  0001 C CNN
F 4 "Panasonic Electronic Components" H 3950 9900 50  0001 C CNN "Manufacturer"
F 5 "ERJ-2BWFR075X" H 3950 9900 50  0001 C CNN "Manufacturer PN"
F 6 "DigiKey" H 3950 9900 50  0001 C CNN "Supplier"
F 7 "P.075ATDKR-ND" H 3950 9900 50  0001 C CNN "Supplier PN"
F 8 "0402WGF750JTCE" H 3950 9900 50  0001 C CNN "ZAlt Manufacturer PN"
	1    3950 9900
	0    1    1    0   
$EndComp
$Comp
L Device:R R31
U 1 1 5D4EA21B
P 3950 10200
F 0 "R31" V 3850 10300 50  0000 C CNN
F 1 "75" V 3850 10100 50  0000 C CNN
F 2 "LibreRouter_MegaBoard:R0402" V 3880 10200 50  0001 C CNN
F 3 "~" H 3950 10200 50  0001 C CNN
F 4 "Panasonic Electronic Components" H 3950 10200 50  0001 C CNN "Manufacturer"
F 5 "ERJ-2BWFR075X" H 3950 10200 50  0001 C CNN "Manufacturer PN"
F 6 "DigiKey" H 3950 10200 50  0001 C CNN "Supplier"
F 7 "P.075ATDKR-ND" H 3950 10200 50  0001 C CNN "Supplier PN"
F 8 "0402WGF750JTCE" H 3950 10200 50  0001 C CNN "ZAlt Manufacturer PN"
	1    3950 10200
	0    1    1    0   
$EndComp
Text Label 3450 8700 0    50   ~ 0
MCT1-5
Text Label 15450 4200 0    50   ~ 0
MCT2
Text Label 3450 9300 0    50   ~ 0
MCT3
Text Label 3450 9600 0    50   ~ 0
MCT4
Text Label 3450 9900 0    50   ~ 0
MCT7
Text Label 3450 10200 0    50   ~ 0
MCT8
$Comp
L Device:R R1
U 1 1 5D4F4E73
P 3950 8700
F 0 "R1" V 3850 8800 50  0000 C CNN
F 1 "75" V 3850 8600 50  0000 C CNN
F 2 "LibreRouter_MegaBoard:R0402" V 3880 8700 50  0001 C CNN
F 3 "~" H 3950 8700 50  0001 C CNN
F 4 "Panasonic Electronic Components" H 3950 8700 50  0001 C CNN "Manufacturer"
F 5 "ERJ-2BWFR075X" H 3950 8700 50  0001 C CNN "Manufacturer PN"
F 6 "DigiKey" H 3950 8700 50  0001 C CNN "Supplier"
F 7 "P.075ATDKR-ND" H 3950 8700 50  0001 C CNN "Supplier PN"
F 8 "0402WGF750JTCE" H 3950 8700 50  0001 C CNN "ZAlt Manufacturer PN"
	1    3950 8700
	0    1    1    0   
$EndComp
$Comp
L Device:C C49
U 1 1 5D4FF644
P 4600 10350
F 0 "C49" H 4715 10396 50  0000 L CNN
F 1 "10nF, 2KV" H 4715 10305 50  0000 L CNN
F 2 "LibreRouter_MegaBoard:C1206" H 4638 10200 50  0001 C CNN
F 3 "~" H 4600 10350 50  0001 C CNN
F 4 "DigiKey" H 4600 10350 50  0001 C CNN "Supplier"
F 5 "Murata Electronics" H 4600 10350 50  0001 C CNN "Manufacturer"
F 6 "GCJ31CR73A103KXJ3L" H 4600 10350 50  0001 C CNN "Manufacturer PN"
F 7 "490-16694-6-ND" H 4600 10350 50  0001 C CNN "Supplier PN"
	1    4600 10350
	1    0    0    -1  
$EndComp
$Comp
L power:GND #PWR0185
U 1 1 5D4FF729
P 4600 10650
F 0 "#PWR0185" H 4600 10400 50  0001 C CNN
F 1 "GND" H 4605 10477 50  0000 C CNN
F 2 "" H 4600 10650 50  0001 C CNN
F 3 "" H 4600 10650 50  0001 C CNN
	1    4600 10650
	1    0    0    -1  
$EndComp
Wire Wire Line
	3700 9000 3800 9000
Wire Wire Line
	4100 9000 4600 9000
Wire Wire Line
	4600 9000 4600 9300
Wire Wire Line
	3450 10200 3800 10200
Wire Wire Line
	3450 9900 3800 9900
Wire Wire Line
	3450 9600 3800 9600
Wire Wire Line
	3450 9300 3800 9300
Wire Wire Line
	4100 9300 4600 9300
Connection ~ 4600 9300
Wire Wire Line
	4600 9300 4600 9600
Wire Wire Line
	4100 9600 4600 9600
Connection ~ 4600 9600
Wire Wire Line
	4600 9600 4600 9900
Wire Wire Line
	4100 9900 4600 9900
Connection ~ 4600 9900
Wire Wire Line
	4600 9900 4600 10200
Wire Wire Line
	4100 10200 4600 10200
Wire Wire Line
	4600 10650 4600 10500
Wire Wire Line
	4100 8700 4600 8700
Wire Wire Line
	4600 8700 4600 9000
Connection ~ 4600 9000
Wire Wire Line
	3450 8700 3700 8700
Wire Wire Line
	3700 9000 3700 8700
Connection ~ 3700 8700
Wire Wire Line
	3700 8700 3800 8700
Connection ~ 4600 10200
$Comp
L Device:R R5
U 1 1 5D6301C2
P 15150 2450
F 0 "R5" H 15000 2450 50  0000 C CNN
F 1 "75" H 15000 2550 50  0000 C CNN
F 2 "LibreRouter_MegaBoard:R0402" V 15080 2450 50  0001 C CNN
F 3 "~" H 15150 2450 50  0001 C CNN
F 4 "Panasonic Electronic Components" H 15150 2450 50  0001 C CNN "Manufacturer"
F 5 "ERJ-2BWFR075X" H 15150 2450 50  0001 C CNN "Manufacturer PN"
F 6 "DigiKey" H 15150 2450 50  0001 C CNN "Supplier"
F 7 "P.075ATDKR-ND" H 15150 2450 50  0001 C CNN "Supplier PN"
F 8 "0402WGF750JTCE" H 15150 2450 50  0001 C CNN "ZAlt Manufacturer PN"
	1    15150 2450
	-1   0    0    1   
$EndComp
$Comp
L Device:C C40
U 1 1 5D6301C9
P 15150 4900
F 0 "C40" H 15265 4946 50  0000 L CNN
F 1 "10nF, 2KV" H 15265 4855 50  0000 L CNN
F 2 "LibreRouter_MegaBoard:C1206" H 15188 4750 50  0001 C CNN
F 3 "~" H 15150 4900 50  0001 C CNN
F 4 "DigiKey" H 15150 4900 50  0001 C CNN "Supplier"
F 5 "Murata Electronics" H 15150 4900 50  0001 C CNN "Manufacturer"
F 6 "GCJ31CR73A103KXJ3L" H 15150 4900 50  0001 C CNN "Manufacturer PN"
F 7 "490-16694-6-ND" H 15150 4900 50  0001 C CNN "Supplier PN"
	1    15150 4900
	1    0    0    -1  
$EndComp
Text Label 15450 2200 0    50   ~ 0
MCT6
$Comp
L Device:R R4
U 1 1 5D63CAC2
P 15150 4450
F 0 "R4" H 15000 4450 50  0000 C CNN
F 1 "75" H 15000 4550 50  0000 C CNN
F 2 "LibreRouter_MegaBoard:R0402" V 15080 4450 50  0001 C CNN
F 3 "~" H 15150 4450 50  0001 C CNN
F 4 "Panasonic Electronic Components" H 15150 4450 50  0001 C CNN "Manufacturer"
F 5 "ERJ-2BWFR075X" H 15150 4450 50  0001 C CNN "Manufacturer PN"
F 6 "DigiKey" H 15150 4450 50  0001 C CNN "Supplier"
F 7 "P.075ATDKR-ND" H 15150 4450 50  0001 C CNN "Supplier PN"
F 8 "0402WGF750JTCE" H 15150 4450 50  0001 C CNN "ZAlt Manufacturer PN"
	1    15150 4450
	-1   0    0    1   
$EndComp
$Comp
L Device:C C41
U 1 1 5D63CAC9
P 15150 2900
F 0 "C41" H 15265 2946 50  0000 L CNN
F 1 "10nF, 2KV" H 15265 2855 50  0000 L CNN
F 2 "LibreRouter_MegaBoard:C1206" H 15188 2750 50  0001 C CNN
F 3 "~" H 15150 2900 50  0001 C CNN
F 4 "DigiKey" H 15150 2900 50  0001 C CNN "Supplier"
F 5 "Murata Electronics" H 15150 2900 50  0001 C CNN "Manufacturer"
F 6 "GCJ31CR73A103KXJ3L" H 15150 2900 50  0001 C CNN "Manufacturer PN"
F 7 "490-16694-6-ND" H 15150 2900 50  0001 C CNN "Supplier PN"
	1    15150 2900
	1    0    0    -1  
$EndComp
$Comp
L power:GND #PWR0187
U 1 1 5D63CAD0
P 15150 5200
F 0 "#PWR0187" H 15150 4950 50  0001 C CNN
F 1 "GND" H 15155 5027 50  0000 C CNN
F 2 "" H 15150 5200 50  0001 C CNN
F 3 "" H 15150 5200 50  0001 C CNN
	1    15150 5200
	1    0    0    -1  
$EndComp
Text Label 1800 8700 0    50   ~ 0
MCT1-5
$Comp
L Device:R R8
U 1 1 5D662C66
P 2300 8700
F 0 "R8" V 2200 8800 50  0000 C CNN
F 1 "0" V 2200 8600 50  0000 C CNN
F 2 "LibreRouter_MegaBoard:R1206" V 2230 8700 50  0001 C CNN
F 3 "~" H 2300 8700 50  0001 C CNN
F 4 "Panasonic Electronic Components" H 2300 8700 50  0001 C CNN "Manufacturer"
F 5 "DigiKey" H 2300 8700 50  0001 C CNN "Supplier"
F 6 "ERJ-8GEY0R00V" H 2300 8700 50  0001 C CNN "Manufacturer PN"
F 7 "P0.0EDKR-ND" H 2300 8700 50  0001 C CNN "Supplier PN"
F 8 "1206W4F0000T5E" H 2300 8700 50  0001 C CNN "ZAlt Manufacturer PN"
	1    2300 8700
	0    1    1    0   
$EndComp
Wire Wire Line
	2450 8700 2950 8700
$Comp
L power:GND #PWR0188
U 1 1 5D670411
P 2950 9300
F 0 "#PWR0188" H 2950 9050 50  0001 C CNN
F 1 "GND" H 2955 9127 50  0000 C CNN
F 2 "" H 2950 9300 50  0001 C CNN
F 3 "" H 2950 9300 50  0001 C CNN
	1    2950 9300
	1    0    0    -1  
$EndComp
$Comp
L Device:R R32
U 1 1 5D87479D
P 13700 4800
F 0 "R32" H 13550 4800 50  0000 C CNN
F 1 "68k" H 13550 4900 50  0000 C CNN
F 2 "LibreRouter_MegaBoard:R0402" V 13630 4800 50  0001 C CNN
F 3 "~" H 13700 4800 50  0001 C CNN
F 4 "Panasonic Electronic Components" H 13700 4800 50  0001 C CNN "Manufacturer"
F 5 "ERJ-PA2F6802X" H 13700 4800 50  0001 C CNN "Manufacturer PN"
F 6 "DigiKey" H 13700 4800 50  0001 C CNN "Supplier"
F 7 "P17235DKR-ND" H 13700 4800 50  0001 C CNN "Supplier PN"
F 8 "0402WGF6802TCE" H 13700 4800 50  0001 C CNN "ZAlt Manufacturer PN"
	1    13700 4800
	-1   0    0    1   
$EndComp
$Comp
L Device:R R57
U 1 1 5D874841
P 13350 4550
F 0 "R57" V 13450 4650 50  0000 C CNN
F 1 "100k" V 13450 4450 50  0000 C CNN
F 2 "LibreRouter_MegaBoard:R0402" V 13280 4550 50  0001 C CNN
F 3 "~" H 13350 4550 50  0001 C CNN
F 4 "Panasonic Electronic Components" H 13350 4550 50  0001 C CNN "Manufacturer"
F 5 "ERJ-PA2F1003X" H 13350 4550 50  0001 C CNN "Manufacturer PN"
F 6 "DigiKey" H 13350 4550 50  0001 C CNN "Supplier"
F 7 "P17236DKR-ND" H 13350 4550 50  0001 C CNN "Supplier PN"
F 8 "0402WGF1003TCE" H 13350 4550 50  0001 C CNN "ZAlt Manufacturer PN"
	1    13350 4550
	0    1    1    0   
$EndComp
$Comp
L power:GND #PWR0189
U 1 1 5D88FE9A
P 13650 7700
F 0 "#PWR0189" H 13650 7450 50  0001 C CNN
F 1 "GND" H 13655 7527 50  0000 C CNN
F 2 "" H 13650 7700 50  0001 C CNN
F 3 "" H 13650 7700 50  0001 C CNN
	1    13650 7700
	1    0    0    -1  
$EndComp
Wire Wire Line
	14400 7250 14600 7250
Wire Wire Line
	15150 5200 15150 5050
Wire Wire Line
	15150 4750 15150 4600
Wire Wire Line
	15150 4300 15150 4200
Wire Wire Line
	15150 4200 15450 4200
Wire Wire Line
	15150 4200 14900 4200
Connection ~ 15150 4200
Wire Wire Line
	13500 4550 13700 4550
Wire Wire Line
	13200 4550 13200 4200
Wire Wire Line
	13200 4200 13600 4200
Wire Wire Line
	13200 4200 12950 4200
Connection ~ 13200 4200
Text Label 14200 3700 0    50   ~ 0
POE_A
Text HLabel 12550 4200 0    50   Input ~ 0
POE_INJECT_V
Text Label 9800 7550 0    50   ~ 0
DISCHARGE
Text Label 4150 7550 0    50   ~ 0
DISCHARGE
Text Label 4150 5750 0    50   ~ 0
DISCHARGE
Text Label 4150 4050 0    50   ~ 0
DISCHARGE
Text Label 4150 2250 0    50   ~ 0
DISCHARGE
Text Label 9800 2250 0    50   ~ 0
DISCHARGE
Text Label 9800 4050 0    50   ~ 0
DISCHARGE
Text Label 9800 5750 0    50   ~ 0
DISCHARGE
Text Label 2150 1000 0    50   ~ 0
DISCHARGE
Text HLabel 1500 1000 0    50   Input ~ 0
DISCHARGE
Wire Wire Line
	2150 1000 1500 1000
$Comp
L p-mosfet_so8:P-MOSFET_SO8 Q9
U 1 1 5DD0095A
P 13800 4200
F 0 "Q9" V 14066 4218 59  0000 C CNN
F 1 "Si4435DDY-T1" V 13961 4218 59  0000 C CNN
F 2 "LibreRouter_MegaBoard:SI4435" H 13800 4200 50  0001 C CNN
F 3 "" H 13800 4200 50  0001 C CNN
F 4 "Vishay Siliconix" H 13800 4200 50  0001 C CNN "Manufacturer"
F 5 "SI4435DDY-T1-E3" H 13800 4200 50  0001 C CNN "Manufacturer PN"
F 6 "DigiKey" H 13800 4200 50  0001 C CNN "Supplier"
F 7 "SI4435DDY-T1-E3DKR-ND" H 13800 4200 50  0001 C CNN "Supplier PN"
	1    13800 4200
	0    -1   -1   0   
$EndComp
$Comp
L nmosfet:NMOSFET Q11
U 1 1 5DD00C18
P 13450 7150
F 0 "Q11" H 13558 7203 59  0000 L CNN
F 1 "BSS138-7-F" H 13558 7098 59  0000 L CNN
F 2 "LibreRouter_MegaBoard:SOT-23" H 13450 7150 50  0001 C CNN
F 3 "" H 13450 7150 50  0001 C CNN
F 4 "Diodes Incorporated" H 13450 7150 50  0001 C CNN "Manufacturer"
F 5 "BSS138-7-F" H 13450 7150 50  0001 C CNN "Manufacturer PN"
F 6 "DigiKey" H 13450 7150 50  0001 C CNN "Supplier"
F 7 "BSS138-FDIDKR-ND" H 13450 7150 50  0001 C CNN "Supplier PN"
	1    13450 7150
	-1   0    0    -1  
$EndComp
Wire Wire Line
	13700 4400 13700 4550
Connection ~ 13700 4550
Wire Wire Line
	13700 4550 13700 4650
$Comp
L Device:D_Schottky D?
U 1 1 5E485211
P 12800 4200
AR Path="/5D0328DE/5E485211" Ref="D?"  Part="1" 
AR Path="/5D032DC8/5E485211" Ref="D28"  Part="1" 
F 0 "D28" H 12800 3984 50  0000 C CNN
F 1 "MBRS540T3" H 12800 4075 50  0000 C CNN
F 2 "LibreRouter_MegaBoard:SMC" H 12800 4200 50  0001 C CNN
F 3 "~" H 12800 4200 50  0001 C CNN
F 4 "ON Semiconductor" H 12800 4200 50  0001 C CNN "Manufacturer"
F 5 "MBRS540T3G" H 12800 4200 50  0001 C CNN "Manufacturer PN"
F 6 "DigiKey" H 12800 4200 50  0001 C CNN "Supplier"
F 7 "MBRS540T3GOSDKR-ND" H 12800 4200 50  0001 C CNN "Supplier PN"
	1    12800 4200
	-1   0    0    1   
$EndComp
Wire Wire Line
	12550 4200 12650 4200
Wire Wire Line
	13650 7250 13850 7250
Text HLabel 14600 6900 2    50   Input ~ 0
POE_INJECT_HARD_EN
Wire Wire Line
	13850 7250 13850 6900
Wire Wire Line
	13850 6900 14100 6900
Connection ~ 13850 7250
Wire Wire Line
	14400 6900 14600 6900
Text Label 12750 6600 0    50   ~ 0
POE_INJECT_CTRL
Wire Wire Line
	12750 6600 13450 6600
Wire Wire Line
	13450 6600 13450 6950
Wire Wire Line
	13450 7350 13450 7650
Wire Wire Line
	13200 3700 14200 3700
Wire Wire Line
	14200 3700 14200 4200
Connection ~ 14200 4200
Wire Wire Line
	14200 4200 14000 4200
Text Label 13800 5150 0    50   ~ 0
POE_INJECT_CTRL
Wire Wire Line
	13700 4950 13700 5150
Wire Wire Line
	13700 5150 13800 5150
Text HLabel 13200 1700 0    50   Output ~ 0
POE_B
$Comp
L power:GND #PWR0197
U 1 1 5E611D89
P 15150 3200
F 0 "#PWR0197" H 15150 2950 50  0001 C CNN
F 1 "GND" H 15155 3027 50  0000 C CNN
F 2 "" H 15150 3200 50  0001 C CNN
F 3 "" H 15150 3200 50  0001 C CNN
	1    15150 3200
	1    0    0    -1  
$EndComp
$Comp
L Device:R R126
U 1 1 5E611D9D
P 13700 2800
F 0 "R126" H 13550 2800 50  0000 C CNN
F 1 "68k" H 13550 2900 50  0000 C CNN
F 2 "LibreRouter_MegaBoard:R0402" V 13630 2800 50  0001 C CNN
F 3 "~" H 13700 2800 50  0001 C CNN
F 4 "Panasonic Electronic Components" H 13700 2800 50  0001 C CNN "Manufacturer"
F 5 "ERJ-PA2F6802X" H 13700 2800 50  0001 C CNN "Manufacturer PN"
F 6 "DigiKey" H 13700 2800 50  0001 C CNN "Supplier"
F 7 "P17235DKR-ND" H 13700 2800 50  0001 C CNN "Supplier PN"
F 8 "0402WGF6802TCE" H 13700 2800 50  0001 C CNN "ZAlt Manufacturer PN"
	1    13700 2800
	-1   0    0    1   
$EndComp
$Comp
L Device:R R125
U 1 1 5E611DA7
P 13350 2550
F 0 "R125" V 13450 2650 50  0000 C CNN
F 1 "100k" V 13450 2450 50  0000 C CNN
F 2 "LibreRouter_MegaBoard:R0402" V 13280 2550 50  0001 C CNN
F 3 "~" H 13350 2550 50  0001 C CNN
F 4 "Panasonic Electronic Components" H 13350 2550 50  0001 C CNN "Manufacturer"
F 5 "ERJ-PA2F1003X" H 13350 2550 50  0001 C CNN "Manufacturer PN"
F 6 "DigiKey" H 13350 2550 50  0001 C CNN "Supplier"
F 7 "P17236DKR-ND" H 13350 2550 50  0001 C CNN "Supplier PN"
F 8 "0402WGF1003TCE" H 13350 2550 50  0001 C CNN "ZAlt Manufacturer PN"
	1    13350 2550
	0    1    1    0   
$EndComp
Wire Wire Line
	15150 3200 15150 3050
Wire Wire Line
	15150 2750 15150 2600
Wire Wire Line
	15150 2300 15150 2200
Wire Wire Line
	15150 2200 15450 2200
Wire Wire Line
	15150 2200 14900 2200
Connection ~ 15150 2200
Wire Wire Line
	13500 2550 13700 2550
Wire Wire Line
	13200 2550 13200 2200
Wire Wire Line
	13200 2200 13600 2200
Wire Wire Line
	13200 2200 12950 2200
Connection ~ 13200 2200
Text Label 14200 1700 0    50   ~ 0
POE_B
Text HLabel 12550 2200 0    50   Input ~ 0
POE_INJECT_V
Wire Wire Line
	14600 2200 14200 2200
$Comp
L p-mosfet_so8:P-MOSFET_SO8 Q12
U 1 1 5E611DC0
P 13800 2200
F 0 "Q12" V 14066 2218 59  0000 C CNN
F 1 "Si4435DDY-T1" V 13961 2218 59  0000 C CNN
F 2 "LibreRouter_MegaBoard:SI4435" H 13800 2200 50  0001 C CNN
F 3 "" H 13800 2200 50  0001 C CNN
F 4 "Vishay Siliconix" H 13800 2200 50  0001 C CNN "Manufacturer"
F 5 "SI4435DDY-T1-E3" H 13800 2200 50  0001 C CNN "Manufacturer PN"
F 6 "DigiKey" H 13800 2200 50  0001 C CNN "Supplier"
F 7 "SI4435DDY-T1-E3DKR-ND" H 13800 2200 50  0001 C CNN "Supplier PN"
	1    13800 2200
	0    -1   -1   0   
$EndComp
Wire Wire Line
	13700 2400 13700 2550
Connection ~ 13700 2550
Wire Wire Line
	13700 2550 13700 2650
$Comp
L Device:D_Schottky D?
U 1 1 5E611DCD
P 12800 2200
AR Path="/5D0328DE/5E611DCD" Ref="D?"  Part="1" 
AR Path="/5D032DC8/5E611DCD" Ref="D27"  Part="1" 
F 0 "D27" H 12800 1984 50  0000 C CNN
F 1 "MBRS540T3" H 12800 2075 50  0000 C CNN
F 2 "LibreRouter_MegaBoard:SMC" H 12800 2200 50  0001 C CNN
F 3 "~" H 12800 2200 50  0001 C CNN
F 4 "ON Semiconductor" H 12800 2200 50  0001 C CNN "Manufacturer"
F 5 "MBRS540T3G" H 12800 2200 50  0001 C CNN "Manufacturer PN"
F 6 "DigiKey" H 12800 2200 50  0001 C CNN "Supplier"
F 7 "MBRS540T3GOSDKR-ND" H 12800 2200 50  0001 C CNN "Supplier PN"
	1    12800 2200
	-1   0    0    1   
$EndComp
Wire Wire Line
	12550 2200 12650 2200
Wire Wire Line
	13200 1700 14200 1700
Wire Wire Line
	14200 1700 14200 2200
Connection ~ 14200 2200
Wire Wire Line
	14200 2200 14000 2200
Text Label 13800 3150 0    50   ~ 0
POE_INJECT_CTRL
Wire Wire Line
	13700 2950 13700 3150
Wire Wire Line
	13700 3150 13800 3150
Wire Notes Line
	11800 1150 16000 1150
Wire Notes Line
	16000 1150 16000 8800
Wire Notes Line
	16000 8800 11800 8800
Wire Notes Line
	11800 8800 11800 1150
Text Notes 12200 8600 0    50   ~ 0
POE input-output control
$Comp
L Device:R R33
U 1 1 5EF6097D
P 14750 4200
F 0 "R33" V 14650 4300 50  0000 C CNN
F 1 "0" V 14650 4100 50  0000 C CNN
F 2 "LibreRouter_MegaBoard:R1206" V 14680 4200 50  0001 C CNN
F 3 "~" H 14750 4200 50  0001 C CNN
F 4 "Panasonic Electronic Components" H 14750 4200 50  0001 C CNN "Manufacturer"
F 5 "DigiKey" H 14750 4200 50  0001 C CNN "Supplier"
F 6 "ERJ-8GEY0R00V" H 14750 4200 50  0001 C CNN "Manufacturer PN"
F 7 "P0.0EDKR-ND" H 14750 4200 50  0001 C CNN "Supplier PN"
F 8 "1206W4F0000T5E" H 14750 4200 50  0001 C CNN "ZAlt Manufacturer PN"
	1    14750 4200
	0    1    1    0   
$EndComp
$Comp
L Device:R R127
U 1 1 5EF61A71
P 14750 2200
F 0 "R127" V 14650 2300 50  0000 C CNN
F 1 "0" V 14650 2100 50  0000 C CNN
F 2 "LibreRouter_MegaBoard:R1206" V 14680 2200 50  0001 C CNN
F 3 "~" H 14750 2200 50  0001 C CNN
F 4 "Panasonic Electronic Components" H 14750 2200 50  0001 C CNN "Manufacturer"
F 5 "DigiKey" H 14750 2200 50  0001 C CNN "Supplier"
F 6 "ERJ-8GEY0R00V" H 14750 2200 50  0001 C CNN "Manufacturer PN"
F 7 "P0.0EDKR-ND" H 14750 2200 50  0001 C CNN "Supplier PN"
F 8 "1206W4F0000T5E" H 14750 2200 50  0001 C CNN "ZAlt Manufacturer PN"
	1    14750 2200
	0    1    1    0   
$EndComp
Wire Wire Line
	13450 7650 13650 7650
Wire Wire Line
	13650 7700 13650 7650
Connection ~ 13650 7650
Wire Wire Line
	13650 7650 13850 7650
$Comp
L Diode:1N4148WS D20
U 1 1 5F10F2C5
P 14250 7250
F 0 "D20" H 14250 7467 50  0000 C CNN
F 1 "1N4148WS" H 14250 7376 50  0000 C CNN
F 2 "Diode_SMD:D_SOD-323" H 14250 7075 50  0001 C CNN
F 3 "https://www.onsemi.com/pub/Collateral/1N914BWS-D.pdf" H 14250 7250 50  0001 C CNN
F 4 "ON Semiconductor" H 14250 7250 50  0001 C CNN "Manufacturer"
F 5 "1N4148WS" H 14250 7250 50  0001 C CNN "Manufacturer PN"
F 6 "DigiKey" H 14250 7250 50  0001 C CNN "Supplier"
F 7 " 1N4148WSFSCT-ND" H 14250 7250 50  0001 C CNN "Supplier PN"
	1    14250 7250
	1    0    0    -1  
$EndComp
Wire Wire Line
	13850 7250 14100 7250
Wire Wire Line
	13850 7300 13850 7250
Wire Wire Line
	13850 7650 13850 7600
$Comp
L Device:R R44
U 1 1 5F1689D3
P 13850 7450
F 0 "R44" H 13700 7550 50  0000 C CNN
F 1 "100k" H 13700 7450 50  0000 C CNN
F 2 "LibreRouter_MegaBoard:R0402" V 13780 7450 50  0001 C CNN
F 3 "~" H 13850 7450 50  0001 C CNN
F 4 "Panasonic Electronic Components" H 13850 7450 50  0001 C CNN "Manufacturer"
F 5 "ERJ-PA2F1003X" H 13850 7450 50  0001 C CNN "Manufacturer PN"
F 6 "DigiKey" H 13850 7450 50  0001 C CNN "Supplier"
F 7 "P17236DKR-ND" H 13850 7450 50  0001 C CNN "Supplier PN"
F 8 "0402WGF1003TCE" H 13850 7450 50  0001 C CNN "ZAlt Manufacturer PN"
	1    13850 7450
	-1   0    0    1   
$EndComp
$Comp
L Diode:1N4148WS D19
U 1 1 5F03F74E
P 14250 6900
F 0 "D19" H 14250 7117 50  0000 C CNN
F 1 "1N4148WS" H 14250 7026 50  0000 C CNN
F 2 "Diode_SMD:D_SOD-323" H 14250 6725 50  0001 C CNN
F 3 "https://www.vishay.com/docs/85751/1n4148ws.pdf" H 14250 6900 50  0001 C CNN
F 4 "ON Semiconductor" H 14250 6900 50  0001 C CNN "Manufacturer"
F 5 "1N4148WS" H 14250 6900 50  0001 C CNN "Manufacturer PN"
F 6 "DigiKey" H 14250 6900 50  0001 C CNN "Supplier"
F 7 " 1N4148WSFSCT-ND" H 14250 6900 50  0001 C CNN "Supplier PN"
	1    14250 6900
	1    0    0    -1  
$EndComp
Text Notes 14000 5800 0    50   ~ 0
MCT 2 and MCT 6 are PoE inputs (or outputs).\nIf PoE inject CTRL is ON then PoE entering \none of the ports is passed to the other port.
Text Notes 14875 2000 0    50   ~ 10
<-- PoE IN\n\n--> PoE OUT
Text Notes 14875 4025 0    50   ~ 10
<-- PoE IN\n\n--> PoE OUT
Text Notes 15475 4025 0    31   ~ 0
If POE_INJECT_CTRL \n(PoE Pass) is enabled
Text Notes 15450 2025 0    31   ~ 0
If POE_INJECT_CTRL \n(PoE Pass) is enabled
$Comp
L Device:R R3
U 1 1 5F16BE10
P 14200 2475
F 0 "R3" H 14050 2575 50  0000 C CNN
F 1 "100k" H 14050 2475 50  0000 C CNN
F 2 "LibreRouter_MegaBoard:R0402" V 14130 2475 50  0001 C CNN
F 3 "~" H 14200 2475 50  0001 C CNN
F 4 "Panasonic Electronic Components" H 14200 2475 50  0001 C CNN "Manufacturer"
F 5 "ERJ-PA2F1003X" H 14200 2475 50  0001 C CNN "Manufacturer PN"
F 6 "DigiKey" H 14200 2475 50  0001 C CNN "Supplier"
F 7 "P17236DKR-ND" H 14200 2475 50  0001 C CNN "Supplier PN"
F 8 "0402WGF1003TCE" H 14200 2475 50  0001 C CNN "ZAlt Manufacturer PN"
	1    14200 2475
	-1   0    0    1   
$EndComp
$Comp
L power:GND #PWR01
U 1 1 5F16BE16
P 14200 2700
F 0 "#PWR01" H 14200 2450 50  0001 C CNN
F 1 "GND" H 14205 2527 50  0000 C CNN
F 2 "" H 14200 2700 50  0001 C CNN
F 3 "" H 14200 2700 50  0001 C CNN
	1    14200 2700
	1    0    0    -1  
$EndComp
Wire Wire Line
	14200 2700 14200 2625
Wire Wire Line
	14200 2325 14200 2200
$Comp
L Device:R R25
U 1 1 5F10FC20
P 14200 4475
F 0 "R25" H 14050 4575 50  0000 C CNN
F 1 "100k" H 14050 4475 50  0000 C CNN
F 2 "LibreRouter_MegaBoard:R0402" V 14130 4475 50  0001 C CNN
F 3 "~" H 14200 4475 50  0001 C CNN
F 4 "Panasonic Electronic Components" H 14200 4475 50  0001 C CNN "Manufacturer"
F 5 "ERJ-PA2F1003X" H 14200 4475 50  0001 C CNN "Manufacturer PN"
F 6 "DigiKey" H 14200 4475 50  0001 C CNN "Supplier"
F 7 "P17236DKR-ND" H 14200 4475 50  0001 C CNN "Supplier PN"
F 8 "0402WGF1003TCE" H 14200 4475 50  0001 C CNN "ZAlt Manufacturer PN"
	1    14200 4475
	-1   0    0    1   
$EndComp
Wire Wire Line
	14200 4200 14600 4200
$Comp
L power:GND #PWR02
U 1 1 5F110642
P 14200 4700
F 0 "#PWR02" H 14200 4450 50  0001 C CNN
F 1 "GND" H 14205 4527 50  0000 C CNN
F 2 "" H 14200 4700 50  0001 C CNN
F 3 "" H 14200 4700 50  0001 C CNN
	1    14200 4700
	1    0    0    -1  
$EndComp
Wire Wire Line
	14200 4700 14200 4625
Wire Wire Line
	14200 4325 14200 4200
Text Notes 12725 5050 0    31   ~ 0
This series resitor between \nPMOS gate and NMOS D is \nto keep PMOS Vgs at nomila \nvalues when the input POE \nvoltage is used at full range
Text Notes 14325 4775 0    31   ~ 0
Limits the output parasitic\nvoltage due to the PMOS \nSource-Drain leak current.
Wire Wire Line
	2950 8700 2950 9300
Wire Wire Line
	1800 8700 2150 8700
$EndSCHEMATC
